﻿Log file open, 02/03/23 16:39:06
LogWindows: Failed to load 'aqProf.dll' (GetLastError=126)
LogWindows: File 'aqProf.dll' does not exist
LogWindows: Failed to load 'VtuneApi.dll' (GetLastError=126)
LogWindows: File 'VtuneApi.dll' does not exist
LogWindows: Failed to load 'VtuneApi32e.dll' (GetLastError=126)
LogWindows: File 'VtuneApi32e.dll' does not exist
LogConsoleResponse: Display: Failed to find resolution value strings in scalability ini. Falling back to default.
LogConsoleResponse: Display: Failed to find resolution value strings in scalability ini. Falling back to default.
LogInit: Display: Running engine for game: SnakeProject
LogPlatformFile: Not using cached read wrapper
LogTaskGraph: Started task graph with 5 named threads and 35 total threads with 3 sets of task threads.
LogStats: Stats thread started at 0.277333
LogICUInternationalization: ICU TimeZone Detection - Raw Offset: +3:00, Platform Override: ''
LogInit: Display: Loading text-based GConfig....
LogPluginManager: Mounting plugin MeshPainting
LogPluginManager: Mounting plugin XGEController
LogPluginManager: Mounting plugin Paper2D
LogPluginManager: Mounting plugin EnvironmentQueryEditor
LogPluginManager: Mounting plugin AISupport
LogPluginManager: Mounting plugin LiveLink
LogPluginManager: Mounting plugin LightPropagationVolume
LogPluginManager: Mounting plugin CameraShakePreviewer
LogPluginManager: Mounting plugin GameplayCameras
LogPluginManager: Mounting plugin AnimationSharing
LogPluginManager: Mounting plugin CLionSourceCodeAccess
LogPluginManager: Mounting plugin CodeLiteSourceCodeAccess
LogPluginManager: Mounting plugin GitSourceControl
LogPluginManager: Mounting plugin OodleData
LogPluginManager: Mounting plugin KDevelopSourceCodeAccess
LogPluginManager: Mounting plugin NullSourceCodeAccess
LogPluginManager: Mounting plugin PerforceSourceControl
LogPluginManager: Mounting plugin PixWinPlugin
LogPluginManager: Mounting plugin PlasticSourceControl
LogPluginManager: Mounting plugin PluginUtils
LogPluginManager: Mounting plugin RiderSourceCodeAccess
LogPluginManager: Mounting plugin PropertyAccessNode
LogPluginManager: Mounting plugin SubversionSourceControl
LogPluginManager: Mounting plugin TextureFormatOodle
LogPluginManager: Mounting plugin OodleNetwork
LogPluginManager: Mounting plugin UObjectPlugin
LogPluginManager: Mounting plugin VisualStudioSourceCodeAccess
LogPluginManager: Mounting plugin XCodeSourceCodeAccess
LogPluginManager: Mounting plugin AssetManagerEditor
LogPluginManager: Mounting plugin VisualStudioCodeSourceCodeAccess
LogPluginManager: Mounting plugin CryptoKeys
LogPluginManager: Mounting plugin CurveEditorTools
LogPluginManager: Mounting plugin DataValidation
LogPluginManager: Mounting plugin FacialAnimation
LogPluginManager: Mounting plugin GameplayTagsEditor
LogPluginManager: Mounting plugin GeometryMode
LogPluginManager: Mounting plugin MacGraphicsSwitching
LogPluginManager: Mounting plugin MaterialAnalyzer
LogPluginManager: Mounting plugin MobileLauncherProfileWizard
LogPluginManager: Mounting plugin PluginBrowser
LogPluginManager: Mounting plugin SpeedTreeImporter
LogPluginManager: Mounting plugin DatasmithContent
LogPluginManager: Mounting plugin VariantManagerContent
LogPluginManager: Mounting plugin Niagara
LogPluginManager: Mounting plugin AlembicImporter
LogPluginManager: Mounting plugin AutomationUtils
LogPluginManager: Mounting plugin BackChannel
LogPluginManager: Mounting plugin ChaosCloth
LogPluginManager: Mounting plugin ChaosClothEditor
LogPluginManager: Mounting plugin ChaosEditor
LogPluginManager: Mounting plugin ChaosNiagara
LogPluginManager: Mounting plugin ChaosSolverPlugin
LogPluginManager: Mounting plugin CharacterAI
LogPluginManager: Mounting plugin LuminPlatformFeatures
LogPluginManager: Mounting plugin MagicLeap
LogPluginManager: Mounting plugin MagicLeapLightEstimation
LogPluginManager: Mounting plugin MagicLeapMedia
LogPluginManager: Mounting plugin GeometryCollectionPlugin
LogPluginManager: Mounting plugin GeometryCache
LogPluginManager: Mounting plugin AndroidMedia
LogPluginManager: Mounting plugin GeometryProcessing
LogPluginManager: Mounting plugin MotoSynth
LogPluginManager: Mounting plugin OpenImageDenoise
LogPluginManager: Mounting plugin PlanarCut
LogPluginManager: Mounting plugin PlatformCrypto
LogPluginManager: Mounting plugin ProxyLODPlugin
LogPluginManager: Mounting plugin PythonScriptPlugin
LogPluginManager: Mounting plugin SkeletalReduction
LogPluginManager: Mounting plugin MagicLeapPassableWorld
LogPluginManager: Mounting plugin MLSDK
LogPluginManager: Mounting plugin UdpMessaging
LogPluginManager: Mounting plugin ActorSequence
LogPluginManager: Mounting plugin TcpMessaging
LogPluginManager: Mounting plugin LevelSequenceEditor
LogPluginManager: Mounting plugin MatineeToLevelSequence
LogPluginManager: Mounting plugin TemplateSequence
LogPluginManager: Mounting plugin AvfMedia
LogPluginManager: Mounting plugin ImgMedia
LogPluginManager: Mounting plugin MediaCompositing
LogPluginManager: Mounting plugin MediaPlayerEditor
LogPluginManager: Mounting plugin LauncherChunkInstaller
LogPluginManager: Mounting plugin WebMMedia
LogPluginManager: Mounting plugin WmfMedia
LogPluginManager: Mounting plugin OnlineSubsystem
LogPluginManager: Mounting plugin OnlineSubsystemNull
LogPluginManager: Mounting plugin OnlineSubsystemUtils
LogPluginManager: Mounting plugin ActorLayerUtilities
LogPluginManager: Mounting plugin AndroidDeviceProfileSelector
LogPluginManager: Mounting plugin AndroidMoviePlayer
LogPluginManager: Mounting plugin AndroidPermission
LogPluginManager: Mounting plugin AppleMoviePlayer
LogPluginManager: Mounting plugin AppleImageUtils
LogPluginManager: Mounting plugin AssetTags
LogPluginManager: Mounting plugin ArchVisCharacter
LogPluginManager: Mounting plugin AudioCapture
LogPluginManager: Mounting plugin AudioSynesthesia
LogPluginManager: Mounting plugin CustomMeshComponent
LogPluginManager: Mounting plugin ChunkDownloader
LogPluginManager: Mounting plugin CableComponent
LogPluginManager: Mounting plugin ExampleDeviceProfileSelector
LogPluginManager: Mounting plugin EditableMesh
LogPluginManager: Mounting plugin GoogleCloudMessaging
LogPluginManager: Mounting plugin GooglePAD
LogPluginManager: Mounting plugin ScreenshotTools
LogPluginManager: Mounting plugin LinuxDeviceProfileSelector
LogPluginManager: Mounting plugin IOSDeviceProfileSelector
LogPluginManager: Mounting plugin LocationServicesBPLibrary
LogPluginManager: Mounting plugin MobilePatchingUtils
LogPluginManager: Mounting plugin OpenXR
LogPluginManager: Mounting plugin OpenXRHandTracking
LogPluginManager: Mounting plugin OpenXREyeTracker
LogPluginManager: Mounting plugin PhysXVehicles
LogPluginManager: Mounting plugin PostSplashScreen
LogPluginManager: Mounting plugin ProceduralMeshComponent
LogPluginManager: Mounting plugin PropertyAccessEditor
LogPluginManager: Mounting plugin RuntimePhysXCooking
LogPluginManager: Mounting plugin Takes
LogPluginManager: Mounting plugin SignificanceManager
LogPluginManager: Mounting plugin SoundFields
LogPluginManager: Mounting plugin Synthesis
LogPluginManager: Mounting plugin WebMMoviePlayer
LogPluginManager: Mounting plugin WindowsMoviePlayer
LogPluginManager: Mounting plugin ContentBrowserAssetDataSource
LogPluginManager: Mounting plugin ContentBrowserClassDataSource
LogPluginManager: Mounting plugin ContentBrowserFileDataSource
LogPluginManager: Mounting plugin OnlineSubsystemGooglePlay
LogPluginManager: Mounting plugin OnlineSubsystemIOS
LogPluginManager: Mounting plugin OculusVR
LogPluginManager: Mounting plugin SteamVR
PixWinPlugin: PIX capture plugin failed to initialize! Check that the process is launched from PIX.
LogInit: Using libcurl 7.55.1-DEV
LogInit:  - built for x86_64-pc-win32
LogInit:  - supports SSL with OpenSSL/1.1.1
LogInit:  - supports HTTP deflate (compression) using libz 1.2.8
LogInit:  - other features:
LogInit:      CURL_VERSION_SSL
LogInit:      CURL_VERSION_LIBZ
LogInit:      CURL_VERSION_IPV6
LogInit:      CURL_VERSION_ASYNCHDNS
LogInit:      CURL_VERSION_LARGEFILE
LogInit:      CURL_VERSION_IDN
LogInit:  CurlRequestOptions (configurable via config and command line):
LogInit:  - bVerifyPeer = true  - Libcurl will verify peer certificate
LogInit:  - bUseHttpProxy = false  - Libcurl will NOT use HTTP proxy
LogInit:  - bDontReuseConnections = false  - Libcurl will reuse connections
LogInit:  - MaxHostConnections = 16  - Libcurl will limit the number of connections to a host
LogInit:  - LocalHostAddr = Default
LogInit:  - BufferSize = 65536
LogOnline: OSS: Creating online subsystem instance for: NULL
LogInit: WinSock: version 1.1 (2.2), MaxSocks=32767, MaxUdp=65467
LogOnline: OSS: TryLoadSubsystemAndSetDefault: Loaded subsystem for module [NULL]
LogOculusPluginWrapper: OculusPlugin initialized successfully
LogHMD: Failed initializing OVRPlugin 1.59.0
LogInit: Build: ++UE4+Release-4.27-CL-18319896
LogInit: Engine Version: 4.27.2-18319896+++UE4+Release-4.27
LogInit: Compatible Engine Version: 4.27.0-17155196+++UE4+Release-4.27
LogInit: Net CL: 17155196
LogInit: OS: Windows 10 (Release 1809) (), CPU: Intel(R) Core(TM) i7-8700 CPU @ 3.20GHz, GPU: NVIDIA GeForce RTX 2060
LogInit: Compiled (64-bit): Nov 30 2021 07:12:08
LogInit: Compiled with Visual C++: 19.24.28315.00
LogInit: Build Configuration: Development
LogInit: Branch Name: ++UE4+Release-4.27
LogInit: Command Line:  -skipcompile
LogInit: Base Directory: F:/Games/EGS/UE_4.27/Engine/Binaries/Win64/
LogInit: Allocator: TBB
LogInit: Installed Engine Build: 1
LogDevObjectVersion: Number of dev versions registered: 29
LogDevObjectVersion:   Dev-Blueprints (B0D832E4-1F89-4F0D-ACCF-7EB736FD4AA2): 10
LogDevObjectVersion:   Dev-Build (E1C64328-A22C-4D53-A36C-8E866417BD8C): 0
LogDevObjectVersion:   Dev-Core (375EC13C-06E4-48FB-B500-84F0262A717E): 4
LogDevObjectVersion:   Dev-Editor (E4B068ED-F494-42E9-A231-DA0B2E46BB41): 40
LogDevObjectVersion:   Dev-Framework (CFFC743F-43B0-4480-9391-14DF171D2073): 37
LogDevObjectVersion:   Dev-Mobile (B02B49B5-BB20-44E9-A304-32B752E40360): 3
LogDevObjectVersion:   Dev-Networking (A4E4105C-59A1-49B5-A7C5-40C4547EDFEE): 0
LogDevObjectVersion:   Dev-Online (39C831C9-5AE6-47DC-9A44-9C173E1C8E7C): 0
LogDevObjectVersion:   Dev-Physics (78F01B33-EBEA-4F98-B9B4-84EACCB95AA2): 14
LogDevObjectVersion:   Dev-Platform (6631380F-2D4D-43E0-8009-CF276956A95A): 0
LogDevObjectVersion:   Dev-Rendering (12F88B9F-8875-4AFC-A67C-D90C383ABD29): 45
LogDevObjectVersion:   Dev-Sequencer (7B5AE74C-D270-4C10-A958-57980B212A5A): 13
LogDevObjectVersion:   Dev-VR (D7296918-1DD6-4BDD-9DE2-64A83CC13884): 3
LogDevObjectVersion:   Dev-LoadTimes (C2A15278-BFE7-4AFE-6C17-90FF531DF755): 1
LogDevObjectVersion:   Private-Geometry (6EACA3D4-40EC-4CC1-B786-8BED09428FC5): 3
LogDevObjectVersion:   Dev-AnimPhys (29E575DD-E0A3-4627-9D10-D276232CDCEA): 17
LogDevObjectVersion:   Dev-Anim (AF43A65D-7FD3-4947-9873-3E8ED9C1BB05): 15
LogDevObjectVersion:   Dev-ReflectionCapture (6B266CEC-1EC7-4B8F-A30B-E4D90942FC07): 1
LogDevObjectVersion:   Dev-Automation (0DF73D61-A23F-47EA-B727-89E90C41499A): 1
LogDevObjectVersion:   FortniteMain (601D1886-AC64-4F84-AA16-D3DE0DEAC7D6): 47
LogDevObjectVersion:   FortniteRelease (E7086368-6B23-4C58-8439-1B7016265E91): 1
LogDevObjectVersion:   Dev-Enterprise (9DFFBCD6-494F-0158-E221-12823C92A888): 10
LogDevObjectVersion:   Dev-Niagara (F2AED0AC-9AFE-416F-8664-AA7FFA26D6FC): 1
LogDevObjectVersion:   Dev-Destruction (174F1F0B-B4C6-45A5-B13F-2EE8D0FB917D): 10
LogDevObjectVersion:   Dev-Physics-Ext (35F94A83-E258-406C-A318-09F59610247C): 41
LogDevObjectVersion:   Dev-PhysicsMaterial-Chaos (B68FC16E-8B1B-42E2-B453-215C058844FE): 1
LogDevObjectVersion:   Dev-CineCamera (B2E18506-4273-CFC2-A54E-F4BB758BBA07): 1
LogDevObjectVersion:   Dev-VirtualProduction (64F58936-FD1B-42BA-BA96-7289D5D0FA4E): 1
LogDevObjectVersion:   Dev-MediaFramework (6F0ED827-A609-4895-9C91-998D90180EA4): 2
LogInit: Presizing for max 25165824 objects, including 0 objects not considered by GC, pre-allocating 0 bytes for permanent pool.
LogConfig: Applying CVar settings from Section [/Script/Engine.StreamingSettings] File [F:/UnrealEngine/SnakeProject/Saved/Config/Windows/Engine.ini]
LogConfig: Setting CVar [[s.MinBulkDataSizeForAsyncLoading:131072]]
LogConfig: Setting CVar [[s.AsyncLoadingThreadEnabled:0]]
LogConfig: Setting CVar [[s.EventDrivenLoaderEnabled:1]]
LogConfig: Setting CVar [[s.WarnIfTimeLimitExceeded:0]]
LogConfig: Setting CVar [[s.TimeLimitExceededMultiplier:1.5]]
LogConfig: Setting CVar [[s.TimeLimitExceededMinTime:0.005]]
LogConfig: Setting CVar [[s.UseBackgroundLevelStreaming:1]]
LogConfig: Setting CVar [[s.PriorityAsyncLoadingExtraTime:15.0]]
LogConfig: Setting CVar [[s.LevelStreamingActorsUpdateTimeLimit:5.0]]
LogConfig: Setting CVar [[s.PriorityLevelStreamingActorsUpdateExtraTime:5.0]]
LogConfig: Setting CVar [[s.LevelStreamingComponentsRegistrationGranularity:10]]
LogConfig: Setting CVar [[s.UnregisterComponentsTimeLimit:1.0]]
LogConfig: Setting CVar [[s.LevelStreamingComponentsUnregistrationGranularity:5]]
LogConfig: Setting CVar [[s.FlushStreamingOnExit:1]]
LogInit: Object subsystem initialized
LogConfig: Setting CVar [[con.DebugEarlyDefault:1]]
LogConfig: Setting CVar [[r.setres:1280x720]]
[2023.02.03-13.39.07:711][  0]LogConfig: Setting CVar [[r.VSync:0]]
[2023.02.03-13.39.07:711][  0]LogConfig: Setting CVar [[r.RHICmdBypass:0]]
[2023.02.03-13.39.07:711][  0]LogConfig: Applying CVar settings from Section [/Script/Engine.RendererSettings] File [F:/UnrealEngine/SnakeProject/Saved/Config/Windows/Engine.ini]
[2023.02.03-13.39.07:711][  0]LogConfig: Setting CVar [[r.GPUCrashDebugging:0]]
[2023.02.03-13.39.07:711][  0]LogConfig: Setting CVar [[r.DefaultFeature.AntiAliasing:0]]
[2023.02.03-13.39.07:711][  0]LogConfig: Setting CVar [[r.DefaultFeature.MotionBlur:0]]
[2023.02.03-13.39.07:711][  0]LogConfig: Setting CVar [[r.EyeAdaptation.EditorOnly:1]]
[2023.02.03-13.39.07:711][  0]LogConfig: Applying CVar settings from Section [/Script/Engine.RendererOverrideSettings] File [F:/UnrealEngine/SnakeProject/Saved/Config/Windows/Engine.ini]
[2023.02.03-13.39.07:711][  0]LogConfig: Applying CVar settings from Section [/Script/Engine.StreamingSettings] File [F:/UnrealEngine/SnakeProject/Saved/Config/Windows/Engine.ini]
[2023.02.03-13.39.07:711][  0]LogConfig: Setting CVar [[s.MinBulkDataSizeForAsyncLoading:131072]]
[2023.02.03-13.39.07:711][  0]LogConfig: Setting CVar [[s.AsyncLoadingThreadEnabled:0]]
[2023.02.03-13.39.07:711][  0]LogConfig: Setting CVar [[s.EventDrivenLoaderEnabled:1]]
[2023.02.03-13.39.07:711][  0]LogConfig: Setting CVar [[s.WarnIfTimeLimitExceeded:0]]
[2023.02.03-13.39.07:711][  0]LogConfig: Setting CVar [[s.TimeLimitExceededMultiplier:1.5]]
[2023.02.03-13.39.07:711][  0]LogConfig: Setting CVar [[s.TimeLimitExceededMinTime:0.005]]
[2023.02.03-13.39.07:712][  0]LogConfig: Setting CVar [[s.UseBackgroundLevelStreaming:1]]
[2023.02.03-13.39.07:712][  0]LogConfig: Setting CVar [[s.PriorityAsyncLoadingExtraTime:15.0]]
[2023.02.03-13.39.07:712][  0]LogConfig: Setting CVar [[s.LevelStreamingActorsUpdateTimeLimit:5.0]]
[2023.02.03-13.39.07:712][  0]LogConfig: Setting CVar [[s.PriorityLevelStreamingActorsUpdateExtraTime:5.0]]
[2023.02.03-13.39.07:712][  0]LogConfig: Setting CVar [[s.LevelStreamingComponentsRegistrationGranularity:10]]
[2023.02.03-13.39.07:712][  0]LogConfig: Setting CVar [[s.UnregisterComponentsTimeLimit:1.0]]
[2023.02.03-13.39.07:712][  0]LogConfig: Setting CVar [[s.LevelStreamingComponentsUnregistrationGranularity:5]]
[2023.02.03-13.39.07:712][  0]LogConfig: Setting CVar [[s.FlushStreamingOnExit:1]]
[2023.02.03-13.39.07:712][  0]LogConfig: Applying CVar settings from Section [/Script/Engine.GarbageCollectionSettings] File [F:/UnrealEngine/SnakeProject/Saved/Config/Windows/Engine.ini]
[2023.02.03-13.39.07:712][  0]LogConfig: Setting CVar [[gc.MaxObjectsNotConsideredByGC:1]]
[2023.02.03-13.39.07:712][  0]LogConfig: Setting CVar [[gc.SizeOfPermanentObjectPool:0]]
[2023.02.03-13.39.07:712][  0]LogConfig: Setting CVar [[gc.FlushStreamingOnGC:0]]
[2023.02.03-13.39.07:712][  0]LogConfig: Setting CVar [[gc.NumRetriesBeforeForcingGC:10]]
[2023.02.03-13.39.07:712][  0]LogConfig: Setting CVar [[gc.AllowParallelGC:1]]
[2023.02.03-13.39.07:712][  0]LogConfig: Setting CVar [[gc.TimeBetweenPurgingPendingKillObjects:61.1]]
[2023.02.03-13.39.07:712][  0]LogConfig: Setting CVar [[gc.MaxObjectsInEditor:25165824]]
[2023.02.03-13.39.07:712][  0]LogConfig: Setting CVar [[gc.IncrementalBeginDestroyEnabled:1]]
[2023.02.03-13.39.07:712][  0]LogConfig: Setting CVar [[gc.CreateGCClusters:1]]
[2023.02.03-13.39.07:712][  0]LogConfig: Setting CVar [[gc.MinGCClusterSize:5]]
[2023.02.03-13.39.07:712][  0]LogConfig: Setting CVar [[gc.ActorClusteringEnabled:0]]
[2023.02.03-13.39.07:713][  0]LogConfig: Setting CVar [[gc.BlueprintClusteringEnabled:0]]
[2023.02.03-13.39.07:713][  0]LogConfig: Setting CVar [[gc.UseDisregardForGCOnDedicatedServers:0]]
[2023.02.03-13.39.07:713][  0]LogConfig: Setting CVar [[gc.MultithreadedDestructionEnabled:1]]
[2023.02.03-13.39.07:713][  0]LogConfig: Applying CVar settings from Section [/Script/Engine.NetworkSettings] File [F:/UnrealEngine/SnakeProject/Saved/Config/Windows/Engine.ini]
[2023.02.03-13.39.07:713][  0]LogConfig: Applying CVar settings from Section [/Script/UnrealEd.CookerSettings] File [F:/UnrealEngine/SnakeProject/Saved/Config/Windows/Engine.ini]
[2023.02.03-13.39.07:721][  0]LogConfig: Applying CVar settings from Section [ViewDistanceQuality@3] File [F:/UnrealEngine/SnakeProject/Saved/Config/Windows/Scalability.ini]
[2023.02.03-13.39.07:721][  0]LogConfig: Setting CVar [[r.SkeletalMeshLODBias:0]]
[2023.02.03-13.39.07:721][  0]LogConfig: Setting CVar [[r.ViewDistanceScale:1.0]]
[2023.02.03-13.39.07:721][  0]LogConfig: Applying CVar settings from Section [AntiAliasingQuality@3] File [F:/UnrealEngine/SnakeProject/Saved/Config/Windows/Scalability.ini]
[2023.02.03-13.39.07:721][  0]LogConfig: Setting CVar [[r.PostProcessAAQuality:4]]
[2023.02.03-13.39.07:721][  0]LogConfig: Applying CVar settings from Section [ShadowQuality@3] File [F:/UnrealEngine/SnakeProject/Saved/Config/Windows/Scalability.ini]
[2023.02.03-13.39.07:721][  0]LogConfig: Setting CVar [[r.LightFunctionQuality:1]]
[2023.02.03-13.39.07:721][  0]LogConfig: Setting CVar [[r.ShadowQuality:5]]
[2023.02.03-13.39.07:721][  0]LogConfig: Setting CVar [[r.Shadow.CSM.MaxCascades:10]]
[2023.02.03-13.39.07:721][  0]LogConfig: Setting CVar [[r.Shadow.MaxResolution:2048]]
[2023.02.03-13.39.07:721][  0]LogConfig: Setting CVar [[r.Shadow.MaxCSMResolution:2048]]
[2023.02.03-13.39.07:721][  0]LogConfig: Setting CVar [[r.Shadow.RadiusThreshold:0.01]]
[2023.02.03-13.39.07:721][  0]LogConfig: Setting CVar [[r.Shadow.DistanceScale:1.0]]
[2023.02.03-13.39.07:721][  0]LogConfig: Setting CVar [[r.Shadow.CSM.TransitionScale:1.0]]
[2023.02.03-13.39.07:721][  0]LogConfig: Setting CVar [[r.Shadow.PreShadowResolutionFactor:1.0]]
[2023.02.03-13.39.07:722][  0]LogConfig: Setting CVar [[r.DistanceFieldShadowing:1]]
[2023.02.03-13.39.07:722][  0]LogConfig: Setting CVar [[r.DistanceFieldAO:1]]
[2023.02.03-13.39.07:722][  0]LogConfig: Setting CVar [[r.AOQuality:2]]
[2023.02.03-13.39.07:722][  0]LogConfig: Setting CVar [[r.VolumetricFog:1]]
[2023.02.03-13.39.07:722][  0]LogConfig: Setting CVar [[r.VolumetricFog.GridPixelSize:8]]
[2023.02.03-13.39.07:722][  0]LogConfig: Setting CVar [[r.VolumetricFog.GridSizeZ:128]]
[2023.02.03-13.39.07:722][  0]LogConfig: Setting CVar [[r.VolumetricFog.HistoryMissSupersampleCount:4]]
[2023.02.03-13.39.07:722][  0]LogConfig: Setting CVar [[r.LightMaxDrawDistanceScale:1]]
[2023.02.03-13.39.07:722][  0]LogConfig: Setting CVar [[r.CapsuleShadows:1]]
[2023.02.03-13.39.07:722][  0]LogConfig: Applying CVar settings from Section [PostProcessQuality@3] File [F:/UnrealEngine/SnakeProject/Saved/Config/Windows/Scalability.ini]
[2023.02.03-13.39.07:722][  0]LogConfig: Setting CVar [[r.MotionBlurQuality:4]]
[2023.02.03-13.39.07:722][  0]LogConfig: Setting CVar [[r.AmbientOcclusionMipLevelFactor:0.4]]
[2023.02.03-13.39.07:722][  0]LogConfig: Setting CVar [[r.AmbientOcclusionMaxQuality:100]]
[2023.02.03-13.39.07:722][  0]LogConfig: Setting CVar [[r.AmbientOcclusionLevels:-1]]
[2023.02.03-13.39.07:722][  0]LogConfig: Setting CVar [[r.AmbientOcclusionRadiusScale:1.0]]
[2023.02.03-13.39.07:722][  0]LogConfig: Setting CVar [[r.DepthOfFieldQuality:2]]
[2023.02.03-13.39.07:722][  0]LogConfig: Setting CVar [[r.RenderTargetPoolMin:400]]
[2023.02.03-13.39.07:722][  0]LogConfig: Setting CVar [[r.LensFlareQuality:2]]
[2023.02.03-13.39.07:722][  0]LogConfig: Setting CVar [[r.SceneColorFringeQuality:1]]
[2023.02.03-13.39.07:722][  0]LogConfig: Setting CVar [[r.EyeAdaptationQuality:2]]
[2023.02.03-13.39.07:722][  0]LogConfig: Setting CVar [[r.BloomQuality:5]]
[2023.02.03-13.39.07:722][  0]LogConfig: Setting CVar [[r.FastBlurThreshold:100]]
[2023.02.03-13.39.07:723][  0]LogConfig: Setting CVar [[r.Upscale.Quality:3]]
[2023.02.03-13.39.07:723][  0]LogConfig: Setting CVar [[r.Tonemapper.GrainQuantization:1]]
[2023.02.03-13.39.07:723][  0]LogConfig: Setting CVar [[r.LightShaftQuality:1]]
[2023.02.03-13.39.07:723][  0]LogConfig: Setting CVar [[r.Filter.SizeScale:1]]
[2023.02.03-13.39.07:723][  0]LogConfig: Setting CVar [[r.Tonemapper.Quality:5]]
[2023.02.03-13.39.07:723][  0]LogConfig: Setting CVar [[r.DOF.Gather.AccumulatorQuality:1        ; higher gathering accumulator quality]]
[2023.02.03-13.39.07:723][  0]LogConfig: Setting CVar [[r.DOF.Gather.PostfilterMethod:1          ; Median3x3 postfilering method]]
[2023.02.03-13.39.07:723][  0]LogConfig: Setting CVar [[r.DOF.Gather.EnableBokehSettings:0       ; no bokeh simulation when gathering]]
[2023.02.03-13.39.07:723][  0]LogConfig: Setting CVar [[r.DOF.Gather.RingCount:4                 ; medium number of samples when gathering]]
[2023.02.03-13.39.07:723][  0]LogConfig: Setting CVar [[r.DOF.Scatter.ForegroundCompositing:1    ; additive foreground scattering]]
[2023.02.03-13.39.07:723][  0]LogConfig: Setting CVar [[r.DOF.Scatter.BackgroundCompositing:2    ; additive background scattering]]
[2023.02.03-13.39.07:723][  0]LogConfig: Setting CVar [[r.DOF.Scatter.EnableBokehSettings:1      ; bokeh simulation when scattering]]
[2023.02.03-13.39.07:723][  0]LogConfig: Setting CVar [[r.DOF.Scatter.MaxSpriteRatio:0.1         ; only a maximum of 10% of scattered bokeh]]
[2023.02.03-13.39.07:723][  0]LogConfig: Setting CVar [[r.DOF.Recombine.Quality:1                ; cheap slight out of focus]]
[2023.02.03-13.39.07:723][  0]LogConfig: Setting CVar [[r.DOF.Recombine.EnableBokehSettings:0    ; no bokeh simulation on slight out of focus]]
[2023.02.03-13.39.07:723][  0]LogConfig: Setting CVar [[r.DOF.TemporalAAQuality:1                ; more stable temporal accumulation]]
[2023.02.03-13.39.07:723][  0]LogConfig: Setting CVar [[r.DOF.Kernel.MaxForegroundRadius:0.025]]
[2023.02.03-13.39.07:723][  0]LogConfig: Setting CVar [[r.DOF.Kernel.MaxBackgroundRadius:0.025]]
[2023.02.03-13.39.07:723][  0]LogConfig: Applying CVar settings from Section [TextureQuality@3] File [F:/UnrealEngine/SnakeProject/Saved/Config/Windows/Scalability.ini]
[2023.02.03-13.39.07:723][  0]LogConfig: Setting CVar [[r.Streaming.MipBias:0]]
[2023.02.03-13.39.07:723][  0]LogConfig: Setting CVar [[r.Streaming.AmortizeCPUToGPUCopy:0]]
[2023.02.03-13.39.07:723][  0]LogConfig: Setting CVar [[r.Streaming.MaxNumTexturesToStreamPerFrame:0]]
[2023.02.03-13.39.07:724][  0]LogConfig: Setting CVar [[r.Streaming.Boost:1]]
[2023.02.03-13.39.07:724][  0]LogConfig: Setting CVar [[r.MaxAnisotropy:8]]
[2023.02.03-13.39.07:724][  0]LogConfig: Setting CVar [[r.VT.MaxAnisotropy:8]]
[2023.02.03-13.39.07:724][  0]LogConfig: Setting CVar [[r.Streaming.LimitPoolSizeToVRAM:0]]
[2023.02.03-13.39.07:724][  0]LogConfig: Setting CVar [[r.Streaming.PoolSize:1000]]
[2023.02.03-13.39.07:724][  0]LogConfig: Setting CVar [[r.Streaming.MaxEffectiveScreenSize:0]]
[2023.02.03-13.39.07:724][  0]LogConfig: Applying CVar settings from Section [EffectsQuality@3] File [F:/UnrealEngine/SnakeProject/Saved/Config/Windows/Scalability.ini]
[2023.02.03-13.39.07:724][  0]LogConfig: Setting CVar [[r.TranslucencyLightingVolumeDim:64]]
[2023.02.03-13.39.07:724][  0]LogConfig: Setting CVar [[r.RefractionQuality:2]]
[2023.02.03-13.39.07:724][  0]LogConfig: Setting CVar [[r.SSR.Quality:3]]
[2023.02.03-13.39.07:724][  0]LogConfig: Setting CVar [[r.SSR.HalfResSceneColor:0]]
[2023.02.03-13.39.07:724][  0]LogConfig: Setting CVar [[r.SceneColorFormat:4]]
[2023.02.03-13.39.07:724][  0]LogConfig: Setting CVar [[r.DetailMode:2]]
[2023.02.03-13.39.07:724][  0]LogConfig: Setting CVar [[r.TranslucencyVolumeBlur:1]]
[2023.02.03-13.39.07:724][  0]LogConfig: Setting CVar [[r.MaterialQualityLevel:1 ; High quality]]
[2023.02.03-13.39.07:724][  0]LogConfig: Setting CVar [[r.AnisotropicMaterials:1]]
[2023.02.03-13.39.07:724][  0]LogConfig: Setting CVar [[r.SSS.Scale:1]]
[2023.02.03-13.39.07:724][  0]LogConfig: Setting CVar [[r.SSS.SampleSet:2]]
[2023.02.03-13.39.07:724][  0]LogConfig: Setting CVar [[r.SSS.Quality:1]]
[2023.02.03-13.39.07:724][  0]LogConfig: Setting CVar [[r.SSS.HalfRes:0]]
[2023.02.03-13.39.07:724][  0]LogConfig: Setting CVar [[r.SSGI.Quality:3]]
[2023.02.03-13.39.07:724][  0]LogConfig: Setting CVar [[r.EmitterSpawnRateScale:1.0]]
[2023.02.03-13.39.07:725][  0]LogConfig: Setting CVar [[r.ParticleLightQuality:2]]
[2023.02.03-13.39.07:725][  0]LogConfig: Setting CVar [[r.SkyAtmosphere.AerialPerspectiveLUT.FastApplyOnOpaque:1 ; Always have FastSkyLUT 1 in this case to avoid wrong sky]]
[2023.02.03-13.39.07:725][  0]LogConfig: Setting CVar [[r.SkyAtmosphere.AerialPerspectiveLUT.SampleCountMaxPerSlice:4]]
[2023.02.03-13.39.07:725][  0]LogConfig: Setting CVar [[r.SkyAtmosphere.AerialPerspectiveLUT.DepthResolution:16.0]]
[2023.02.03-13.39.07:725][  0]LogConfig: Setting CVar [[r.SkyAtmosphere.FastSkyLUT:1]]
[2023.02.03-13.39.07:725][  0]LogConfig: Setting CVar [[r.SkyAtmosphere.FastSkyLUT.SampleCountMin:4.0]]
[2023.02.03-13.39.07:725][  0]LogConfig: Setting CVar [[r.SkyAtmosphere.FastSkyLUT.SampleCountMax:128.0]]
[2023.02.03-13.39.07:725][  0]LogConfig: Setting CVar [[r.SkyAtmosphere.SampleCountMin:4.0]]
[2023.02.03-13.39.07:725][  0]LogConfig: Setting CVar [[r.SkyAtmosphere.SampleCountMax:128.0]]
[2023.02.03-13.39.07:725][  0]LogConfig: Setting CVar [[r.SkyAtmosphere.TransmittanceLUT.UseSmallFormat:0]]
[2023.02.03-13.39.07:725][  0]LogConfig: Setting CVar [[r.SkyAtmosphere.TransmittanceLUT.SampleCount:10.0]]
[2023.02.03-13.39.07:725][  0]LogConfig: Setting CVar [[r.SkyAtmosphere.MultiScatteringLUT.SampleCount:15.0]]
[2023.02.03-13.39.07:725][  0]LogConfig: Setting CVar [[r.SkyLight.RealTimeReflectionCapture:1]]
[2023.02.03-13.39.07:725][  0]LogConfig: Applying CVar settings from Section [FoliageQuality@3] File [F:/UnrealEngine/SnakeProject/Saved/Config/Windows/Scalability.ini]
[2023.02.03-13.39.07:725][  0]LogConfig: Setting CVar [[foliage.DensityScale:1.0]]
[2023.02.03-13.39.07:725][  0]LogConfig: Setting CVar [[grass.DensityScale:1.0]]
[2023.02.03-13.39.07:725][  0]LogConfig: Applying CVar settings from Section [ShadingQuality@3] File [F:/UnrealEngine/SnakeProject/Saved/Config/Windows/Scalability.ini]
[2023.02.03-13.39.07:725][  0]LogConfig: Setting CVar [[r.HairStrands.SkyLighting.IntegrationType:2]]
[2023.02.03-13.39.07:725][  0]LogConfig: Setting CVar [[r.HairStrands.SkyAO.SampleCount:4]]
[2023.02.03-13.39.07:725][  0]LogConfig: Setting CVar [[r.HairStrands.Visibility.MSAA.SamplePerPixel:4]]
[2023.02.03-13.39.07:725][  0]LogInit: Selected Device Profile: [Windows]
[2023.02.03-13.39.07:725][  0]LogInit: Applying CVar settings loaded from the selected device profile: [Windows]
[2023.02.03-13.39.07:726][  0]LogHAL: Display: Platform has ~ 16 GB [17089884160 / 17179869184 / 16], which maps to Larger [LargestMinGB=32, LargerMinGB=12, DefaultMinGB=8, SmallerMinGB=6, SmallestMinGB=0)
[2023.02.03-13.39.07:726][  0]LogInit: Going up to parent DeviceProfile []
[2023.02.03-13.39.07:726][  0]LogConfig: Applying CVar settings from Section [ViewDistanceQuality@3] File [F:/UnrealEngine/SnakeProject/Saved/Config/Windows/Scalability.ini]
[2023.02.03-13.39.07:726][  0]LogConfig: Setting CVar [[r.SkeletalMeshLODBias:0]]
[2023.02.03-13.39.07:726][  0]LogConfig: Setting CVar [[r.ViewDistanceScale:1.0]]
[2023.02.03-13.39.07:726][  0]LogConfig: Applying CVar settings from Section [AntiAliasingQuality@3] File [F:/UnrealEngine/SnakeProject/Saved/Config/Windows/Scalability.ini]
[2023.02.03-13.39.07:726][  0]LogConfig: Setting CVar [[r.PostProcessAAQuality:4]]
[2023.02.03-13.39.07:726][  0]LogConfig: Applying CVar settings from Section [ShadowQuality@3] File [F:/UnrealEngine/SnakeProject/Saved/Config/Windows/Scalability.ini]
[2023.02.03-13.39.07:726][  0]LogConfig: Setting CVar [[r.LightFunctionQuality:1]]
[2023.02.03-13.39.07:726][  0]LogConfig: Setting CVar [[r.ShadowQuality:5]]
[2023.02.03-13.39.07:726][  0]LogConfig: Setting CVar [[r.Shadow.CSM.MaxCascades:10]]
[2023.02.03-13.39.07:726][  0]LogConfig: Setting CVar [[r.Shadow.MaxResolution:2048]]
[2023.02.03-13.39.07:726][  0]LogConfig: Setting CVar [[r.Shadow.MaxCSMResolution:2048]]
[2023.02.03-13.39.07:726][  0]LogConfig: Setting CVar [[r.Shadow.RadiusThreshold:0.01]]
[2023.02.03-13.39.07:726][  0]LogConfig: Setting CVar [[r.Shadow.DistanceScale:1.0]]
[2023.02.03-13.39.07:726][  0]LogConfig: Setting CVar [[r.Shadow.CSM.TransitionScale:1.0]]
[2023.02.03-13.39.07:726][  0]LogConfig: Setting CVar [[r.Shadow.PreShadowResolutionFactor:1.0]]
[2023.02.03-13.39.07:726][  0]LogConfig: Setting CVar [[r.DistanceFieldShadowing:1]]
[2023.02.03-13.39.07:726][  0]LogConfig: Setting CVar [[r.DistanceFieldAO:1]]
[2023.02.03-13.39.07:727][  0]LogConfig: Setting CVar [[r.AOQuality:2]]
[2023.02.03-13.39.07:727][  0]LogConfig: Setting CVar [[r.VolumetricFog:1]]
[2023.02.03-13.39.07:727][  0]LogConfig: Setting CVar [[r.VolumetricFog.GridPixelSize:8]]
[2023.02.03-13.39.07:727][  0]LogConfig: Setting CVar [[r.VolumetricFog.GridSizeZ:128]]
[2023.02.03-13.39.07:727][  0]LogConfig: Setting CVar [[r.VolumetricFog.HistoryMissSupersampleCount:4]]
[2023.02.03-13.39.07:727][  0]LogConfig: Setting CVar [[r.LightMaxDrawDistanceScale:1]]
[2023.02.03-13.39.07:727][  0]LogConfig: Setting CVar [[r.CapsuleShadows:1]]
[2023.02.03-13.39.07:727][  0]LogConfig: Applying CVar settings from Section [PostProcessQuality@3] File [F:/UnrealEngine/SnakeProject/Saved/Config/Windows/Scalability.ini]
[2023.02.03-13.39.07:727][  0]LogConfig: Setting CVar [[r.MotionBlurQuality:4]]
[2023.02.03-13.39.07:727][  0]LogConfig: Setting CVar [[r.AmbientOcclusionMipLevelFactor:0.4]]
[2023.02.03-13.39.07:727][  0]LogConfig: Setting CVar [[r.AmbientOcclusionMaxQuality:100]]
[2023.02.03-13.39.07:727][  0]LogConfig: Setting CVar [[r.AmbientOcclusionLevels:-1]]
[2023.02.03-13.39.07:727][  0]LogConfig: Setting CVar [[r.AmbientOcclusionRadiusScale:1.0]]
[2023.02.03-13.39.07:727][  0]LogConfig: Setting CVar [[r.DepthOfFieldQuality:2]]
[2023.02.03-13.39.07:727][  0]LogConfig: Setting CVar [[r.RenderTargetPoolMin:400]]
[2023.02.03-13.39.07:727][  0]LogConfig: Setting CVar [[r.LensFlareQuality:2]]
[2023.02.03-13.39.07:727][  0]LogConfig: Setting CVar [[r.SceneColorFringeQuality:1]]
[2023.02.03-13.39.07:727][  0]LogConfig: Setting CVar [[r.EyeAdaptationQuality:2]]
[2023.02.03-13.39.07:727][  0]LogConfig: Setting CVar [[r.BloomQuality:5]]
[2023.02.03-13.39.07:728][  0]LogConfig: Setting CVar [[r.FastBlurThreshold:100]]
[2023.02.03-13.39.07:728][  0]LogConfig: Setting CVar [[r.Upscale.Quality:3]]
[2023.02.03-13.39.07:728][  0]LogConfig: Setting CVar [[r.Tonemapper.GrainQuantization:1]]
[2023.02.03-13.39.07:728][  0]LogConfig: Setting CVar [[r.LightShaftQuality:1]]
[2023.02.03-13.39.07:728][  0]LogConfig: Setting CVar [[r.Filter.SizeScale:1]]
[2023.02.03-13.39.07:728][  0]LogConfig: Setting CVar [[r.Tonemapper.Quality:5]]
[2023.02.03-13.39.07:728][  0]LogConfig: Setting CVar [[r.DOF.Gather.AccumulatorQuality:1        ; higher gathering accumulator quality]]
[2023.02.03-13.39.07:728][  0]LogConfig: Setting CVar [[r.DOF.Gather.PostfilterMethod:1          ; Median3x3 postfilering method]]
[2023.02.03-13.39.07:728][  0]LogConfig: Setting CVar [[r.DOF.Gather.EnableBokehSettings:0       ; no bokeh simulation when gathering]]
[2023.02.03-13.39.07:728][  0]LogConfig: Setting CVar [[r.DOF.Gather.RingCount:4                 ; medium number of samples when gathering]]
[2023.02.03-13.39.07:728][  0]LogConfig: Setting CVar [[r.DOF.Scatter.ForegroundCompositing:1    ; additive foreground scattering]]
[2023.02.03-13.39.07:728][  0]LogConfig: Setting CVar [[r.DOF.Scatter.BackgroundCompositing:2    ; additive background scattering]]
[2023.02.03-13.39.07:728][  0]LogConfig: Setting CVar [[r.DOF.Scatter.EnableBokehSettings:1      ; bokeh simulation when scattering]]
[2023.02.03-13.39.07:728][  0]LogConfig: Setting CVar [[r.DOF.Scatter.MaxSpriteRatio:0.1         ; only a maximum of 10% of scattered bokeh]]
[2023.02.03-13.39.07:728][  0]LogConfig: Setting CVar [[r.DOF.Recombine.Quality:1                ; cheap slight out of focus]]
[2023.02.03-13.39.07:728][  0]LogConfig: Setting CVar [[r.DOF.Recombine.EnableBokehSettings:0    ; no bokeh simulation on slight out of focus]]
[2023.02.03-13.39.07:728][  0]LogConfig: Setting CVar [[r.DOF.TemporalAAQuality:1                ; more stable temporal accumulation]]
[2023.02.03-13.39.07:728][  0]LogConfig: Setting CVar [[r.DOF.Kernel.MaxForegroundRadius:0.025]]
[2023.02.03-13.39.07:728][  0]LogConfig: Setting CVar [[r.DOF.Kernel.MaxBackgroundRadius:0.025]]
[2023.02.03-13.39.07:728][  0]LogConfig: Applying CVar settings from Section [TextureQuality@3] File [F:/UnrealEngine/SnakeProject/Saved/Config/Windows/Scalability.ini]
[2023.02.03-13.39.07:729][  0]LogConfig: Setting CVar [[r.Streaming.MipBias:0]]
[2023.02.03-13.39.07:729][  0]LogConfig: Setting CVar [[r.Streaming.AmortizeCPUToGPUCopy:0]]
[2023.02.03-13.39.07:729][  0]LogConfig: Setting CVar [[r.Streaming.MaxNumTexturesToStreamPerFrame:0]]
[2023.02.03-13.39.07:729][  0]LogConfig: Setting CVar [[r.Streaming.Boost:1]]
[2023.02.03-13.39.07:729][  0]LogConfig: Setting CVar [[r.MaxAnisotropy:8]]
[2023.02.03-13.39.07:729][  0]LogConfig: Setting CVar [[r.VT.MaxAnisotropy:8]]
[2023.02.03-13.39.07:729][  0]LogConfig: Setting CVar [[r.Streaming.LimitPoolSizeToVRAM:0]]
[2023.02.03-13.39.07:729][  0]LogConfig: Setting CVar [[r.Streaming.PoolSize:1000]]
[2023.02.03-13.39.07:729][  0]LogConfig: Setting CVar [[r.Streaming.MaxEffectiveScreenSize:0]]
[2023.02.03-13.39.07:729][  0]LogConfig: Applying CVar settings from Section [EffectsQuality@3] File [F:/UnrealEngine/SnakeProject/Saved/Config/Windows/Scalability.ini]
[2023.02.03-13.39.07:729][  0]LogConfig: Setting CVar [[r.TranslucencyLightingVolumeDim:64]]
[2023.02.03-13.39.07:729][  0]LogConfig: Setting CVar [[r.RefractionQuality:2]]
[2023.02.03-13.39.07:729][  0]LogConfig: Setting CVar [[r.SSR.Quality:3]]
[2023.02.03-13.39.07:729][  0]LogConfig: Setting CVar [[r.SSR.HalfResSceneColor:0]]
[2023.02.03-13.39.07:729][  0]LogConfig: Setting CVar [[r.SceneColorFormat:4]]
[2023.02.03-13.39.07:729][  0]LogConfig: Setting CVar [[r.DetailMode:2]]
[2023.02.03-13.39.07:729][  0]LogConfig: Setting CVar [[r.TranslucencyVolumeBlur:1]]
[2023.02.03-13.39.07:729][  0]LogConfig: Setting CVar [[r.MaterialQualityLevel:1 ; High quality]]
[2023.02.03-13.39.07:729][  0]LogConfig: Setting CVar [[r.AnisotropicMaterials:1]]
[2023.02.03-13.39.07:729][  0]LogConfig: Setting CVar [[r.SSS.Scale:1]]
[2023.02.03-13.39.07:729][  0]LogConfig: Setting CVar [[r.SSS.SampleSet:2]]
[2023.02.03-13.39.07:729][  0]LogConfig: Setting CVar [[r.SSS.Quality:1]]
[2023.02.03-13.39.07:730][  0]LogConfig: Setting CVar [[r.SSS.HalfRes:0]]
[2023.02.03-13.39.07:730][  0]LogConfig: Setting CVar [[r.SSGI.Quality:3]]
[2023.02.03-13.39.07:730][  0]LogConfig: Setting CVar [[r.EmitterSpawnRateScale:1.0]]
[2023.02.03-13.39.07:730][  0]LogConfig: Setting CVar [[r.ParticleLightQuality:2]]
[2023.02.03-13.39.07:730][  0]LogConfig: Setting CVar [[r.SkyAtmosphere.AerialPerspectiveLUT.FastApplyOnOpaque:1 ; Always have FastSkyLUT 1 in this case to avoid wrong sky]]
[2023.02.03-13.39.07:730][  0]LogConfig: Setting CVar [[r.SkyAtmosphere.AerialPerspectiveLUT.SampleCountMaxPerSlice:4]]
[2023.02.03-13.39.07:730][  0]LogConfig: Setting CVar [[r.SkyAtmosphere.AerialPerspectiveLUT.DepthResolution:16.0]]
[2023.02.03-13.39.07:730][  0]LogConfig: Setting CVar [[r.SkyAtmosphere.FastSkyLUT:1]]
[2023.02.03-13.39.07:730][  0]LogConfig: Setting CVar [[r.SkyAtmosphere.FastSkyLUT.SampleCountMin:4.0]]
[2023.02.03-13.39.07:730][  0]LogConfig: Setting CVar [[r.SkyAtmosphere.FastSkyLUT.SampleCountMax:128.0]]
[2023.02.03-13.39.07:730][  0]LogConfig: Setting CVar [[r.SkyAtmosphere.SampleCountMin:4.0]]
[2023.02.03-13.39.07:730][  0]LogConfig: Setting CVar [[r.SkyAtmosphere.SampleCountMax:128.0]]
[2023.02.03-13.39.07:730][  0]LogConfig: Setting CVar [[r.SkyAtmosphere.TransmittanceLUT.UseSmallFormat:0]]
[2023.02.03-13.39.07:730][  0]LogConfig: Setting CVar [[r.SkyAtmosphere.TransmittanceLUT.SampleCount:10.0]]
[2023.02.03-13.39.07:730][  0]LogConfig: Setting CVar [[r.SkyAtmosphere.MultiScatteringLUT.SampleCount:15.0]]
[2023.02.03-13.39.07:730][  0]LogConfig: Setting CVar [[r.SkyLight.RealTimeReflectionCapture:1]]
[2023.02.03-13.39.07:730][  0]LogConfig: Applying CVar settings from Section [FoliageQuality@3] File [F:/UnrealEngine/SnakeProject/Saved/Config/Windows/Scalability.ini]
[2023.02.03-13.39.07:730][  0]LogConfig: Setting CVar [[foliage.DensityScale:1.0]]
[2023.02.03-13.39.07:730][  0]LogConfig: Setting CVar [[grass.DensityScale:1.0]]
[2023.02.03-13.39.07:730][  0]LogConfig: Applying CVar settings from Section [ShadingQuality@3] File [F:/UnrealEngine/SnakeProject/Saved/Config/Windows/Scalability.ini]
[2023.02.03-13.39.07:730][  0]LogConfig: Setting CVar [[r.HairStrands.SkyLighting.IntegrationType:2]]
[2023.02.03-13.39.07:730][  0]LogConfig: Setting CVar [[r.HairStrands.SkyAO.SampleCount:4]]
[2023.02.03-13.39.07:731][  0]LogConfig: Setting CVar [[r.HairStrands.Visibility.MSAA.SamplePerPixel:4]]
[2023.02.03-13.39.07:731][  0]LogConfig: Applying CVar settings from Section [Startup] File [../../../Engine/Config/ConsoleVariables.ini]
[2023.02.03-13.39.07:731][  0]LogConfig: Setting CVar [[net.UseAdaptiveNetUpdateFrequency:0]]
[2023.02.03-13.39.07:731][  0]LogConfig: Setting CVar [[p.chaos.AllowCreatePhysxBodies:1]]
[2023.02.03-13.39.07:731][  0]LogConfig: Setting CVar [[fx.SkipVectorVMBackendOptimizations:1]]
[2023.02.03-13.39.07:731][  0]LogConfig: Applying CVar settings from Section [ConsoleVariables] File [F:/UnrealEngine/SnakeProject/Saved/Config/Windows/Engine.ini]
[2023.02.03-13.39.07:731][  0]LogConfig: Applying CVar settings from Section [ConsoleVariables] File [F:/UnrealEngine/SnakeProject/Saved/Config/Windows/Editor.ini]
[2023.02.03-13.39.07:731][  0]LogInit: Computer: DESKTOP-T19TBEO
[2023.02.03-13.39.07:731][  0]LogInit: User: home
[2023.02.03-13.39.07:731][  0]LogInit: CPU Page size=4096, Cores=6
[2023.02.03-13.39.07:731][  0]LogInit: High frequency timer resolution =10.000000 MHz
[2023.02.03-13.39.07:731][  0]LogMemory: Memory total: Physical=15.9GB (16GB approx)
[2023.02.03-13.39.07:731][  0]LogMemory: Platform Memory Stats for Windows
[2023.02.03-13.39.07:731][  0]LogMemory: Process Physical Memory: 146.81 MB used, 147.02 MB peak
[2023.02.03-13.39.07:732][  0]LogMemory: Process Virtual Memory: 123.94 MB used, 123.94 MB peak
[2023.02.03-13.39.07:732][  0]LogMemory: Physical Memory: 9689.45 MB used,  6608.74 MB free, 16298.18 MB total
[2023.02.03-13.39.07:732][  0]LogMemory: Virtual Memory: 134208496.00 MB used,  9228.76 MB free, 134217728.00 MB total
[2023.02.03-13.39.07:738][  0]LogWindows: WindowsPlatformFeatures enabled
[2023.02.03-13.39.07:854][  0]LogInit: Physics initialised using underlying interface: PhysX
[2023.02.03-13.39.07:854][  0]LogInit: Using OS detected language (ru-RU).
[2023.02.03-13.39.07:855][  0]LogInit: Using OS detected locale (ru-RU).
[2023.02.03-13.39.07:857][  0]LogTextLocalizationManager: No specific localization for 'ru-RU' exists, so the 'ru' localization will be used.
[2023.02.03-13.39.07:857][  0]LogTextLocalizationResource: LocRes '../../../Engine/Content/Localization/Editor/ru/Editor.locres' could not be opened for reading!
[2023.02.03-13.39.07:857][  0]LogTextLocalizationResource: LocRes '../../../Engine/Content/Localization/EditorTutorials/ru/EditorTutorials.locres' could not be opened for reading!
[2023.02.03-13.39.07:857][  0]LogTextLocalizationResource: LocRes '../../../Engine/Content/Localization/Keywords/ru/Keywords.locres' could not be opened for reading!
[2023.02.03-13.39.07:858][  0]LogTextLocalizationResource: LocRes '../../../Engine/Content/Localization/Category/ru/Category.locres' could not be opened for reading!
[2023.02.03-13.39.07:858][  0]LogTextLocalizationResource: LocRes '../../../Engine/Content/Localization/ToolTips/ru/ToolTips.locres' could not be opened for reading!
[2023.02.03-13.39.07:858][  0]LogTextLocalizationResource: LocRes '../../../Engine/Content/Localization/PropertyNames/ru/PropertyNames.locres' could not be opened for reading!
[2023.02.03-13.39.07:858][  0]LogTextLocalizationResource: LocRes '../../../Engine/Content/Localization/Engine/ru/Engine.locres' could not be opened for reading!
[2023.02.03-13.39.07:858][  0]LogInit: Setting process to per monitor DPI aware
[2023.02.03-13.39.07:971][  0]LogWindowsTextInputMethodSystem: Display: IME system deactivated.
[2023.02.03-13.39.07:983][  0]LogSlate: New Slate User Created.  User Index 0, Is Virtual User: 0
[2023.02.03-13.39.07:983][  0]LogSlate: Slate User Registered.  User Index 0, Is Virtual User: 0
[2023.02.03-13.39.08:090][  0]LogD3D11RHI: Loaded GFSDK_Aftermath_Lib.x64.dll
[2023.02.03-13.39.08:138][  0]LogHMD: Failed to initialize OpenVR with code 117
[2023.02.03-13.39.08:138][  0]LogD3D11RHI: D3D11 min allowed feature level: 11_0
[2023.02.03-13.39.08:138][  0]LogD3D11RHI: D3D11 max allowed feature level: 11_0
[2023.02.03-13.39.08:139][  0]LogD3D11RHI: D3D11 adapters:
[2023.02.03-13.39.08:224][  0]LogD3D11RHI:    0. 'NVIDIA GeForce RTX 2060' (Feature Level 11_0)
[2023.02.03-13.39.08:224][  0]LogD3D11RHI:       5968/0/8149 MB DedicatedVideo/DedicatedSystem/SharedSystem, Outputs:1, VendorId:0x10de
[2023.02.03-13.39.08:228][  0]LogD3D11RHI:    1. 'Microsoft Basic Render Driver' (Feature Level 11_0)
[2023.02.03-13.39.08:228][  0]LogD3D11RHI:       0/0/8149 MB DedicatedVideo/DedicatedSystem/SharedSystem, Outputs:0, VendorId:0x1414
[2023.02.03-13.39.08:228][  0]LogD3D11RHI: Chosen D3D11 Adapter:
[2023.02.03-13.39.08:228][  0]LogD3D11RHI:     Description : NVIDIA GeForce RTX 2060
[2023.02.03-13.39.08:228][  0]LogD3D11RHI:     VendorId    : 10de
[2023.02.03-13.39.08:228][  0]LogD3D11RHI:     DeviceId    : 1f08
[2023.02.03-13.39.08:229][  0]LogD3D11RHI:     SubSysId    : 37541462
[2023.02.03-13.39.08:229][  0]LogD3D11RHI:     Revision    : 00a1
[2023.02.03-13.39.08:229][  0]LogD3D11RHI:     DedicatedVideoMemory : 6257901568 bytes
[2023.02.03-13.39.08:229][  0]LogD3D11RHI:     DedicatedSystemMemory : 0 bytes
[2023.02.03-13.39.08:229][  0]LogD3D11RHI:     SharedSystemMemory : 8544942080 bytes
[2023.02.03-13.39.08:229][  0]LogD3D11RHI:     AdapterLuid : 0 70715
[2023.02.03-13.39.08:235][  0]LogD3D11RHI: Creating new Direct3DDevice
[2023.02.03-13.39.08:235][  0]LogD3D11RHI:     GPU DeviceId: 0x1f08 (for the marketing name, search the web for "GPU Device Id")
[2023.02.03-13.39.08:235][  0]LogWindows: EnumDisplayDevices:
[2023.02.03-13.39.08:235][  0]LogWindows:    0. 'NVIDIA GeForce RTX 2060' (P:1 D:1)
[2023.02.03-13.39.08:236][  0]LogWindows:    1. 'NVIDIA GeForce RTX 2060' (P:0 D:0)
[2023.02.03-13.39.08:236][  0]LogWindows:    2. 'NVIDIA GeForce RTX 2060' (P:0 D:0)
[2023.02.03-13.39.08:237][  0]LogWindows:    3. 'NVIDIA GeForce RTX 2060' (P:0 D:0)
[2023.02.03-13.39.08:237][  0]LogWindows: DebugString: FoundDriverCount:4 
[2023.02.03-13.39.08:237][  0]LogD3D11RHI:     Adapter Name: NVIDIA GeForce RTX 2060
[2023.02.03-13.39.08:237][  0]LogD3D11RHI:   Driver Version: 526.98 (internal:31.0.15.2698, unified:526.98)
[2023.02.03-13.39.08:237][  0]LogD3D11RHI:      Driver Date: 11-13-2022
[2023.02.03-13.39.08:237][  0]LogRHI: Texture pool is 4177 MB (70% of 5968 MB)
[2023.02.03-13.39.08:237][  0]LogD3D11RHI: Creating D3DDevice using adapter:
[2023.02.03-13.39.08:237][  0]LogD3D11RHI:     Description : NVIDIA GeForce RTX 2060
[2023.02.03-13.39.08:237][  0]LogD3D11RHI:     VendorId    : 10de
[2023.02.03-13.39.08:237][  0]LogD3D11RHI:     DeviceId    : 1f08
[2023.02.03-13.39.08:237][  0]LogD3D11RHI:     SubSysId    : 37541462
[2023.02.03-13.39.08:237][  0]LogD3D11RHI:     Revision    : 00a1
[2023.02.03-13.39.08:237][  0]LogD3D11RHI:     DedicatedVideoMemory : 6257901568 bytes
[2023.02.03-13.39.08:237][  0]LogD3D11RHI:     DedicatedSystemMemory : 0 bytes
[2023.02.03-13.39.08:237][  0]LogD3D11RHI:     SharedSystemMemory : 8544942080 bytes
[2023.02.03-13.39.08:237][  0]LogD3D11RHI:     AdapterLuid : 0 70715
[2023.02.03-13.39.08:287][  0]LogD3D11RHI: RHI has support for 64 bit atomics
[2023.02.03-13.39.08:287][  0]LogD3D11RHI: Async texture creation enabled
[2023.02.03-13.39.08:288][  0]LogD3D11RHI: Array index from any shader is supported
[2023.02.03-13.39.08:301][  0]LogD3D11RHI: GPU Timing Frequency: 1000.000000 (Debug: 2 1)
[2023.02.03-13.39.08:327][  0]LogRHI: GeForceNow SDK initialized: 1
[2023.02.03-13.39.08:567][  0]LogTargetPlatformManager: Display: Loaded TargetPlatform 'AllDesktop'
[2023.02.03-13.39.08:586][  0]LogTargetPlatformManager: Display: Loaded TargetPlatform 'Android'
[2023.02.03-13.39.08:586][  0]LogTargetPlatformManager: Display: Loaded TargetPlatform 'Android_ASTC'
[2023.02.03-13.39.08:586][  0]LogTargetPlatformManager: Display: Loaded TargetPlatform 'Android_DXT'
[2023.02.03-13.39.08:586][  0]LogTargetPlatformManager: Display: Loaded TargetPlatform 'Android_ETC2'
[2023.02.03-13.39.08:586][  0]LogTargetPlatformManager: Display: Loaded TargetPlatform 'AndroidClient'
[2023.02.03-13.39.08:586][  0]LogTargetPlatformManager: Display: Loaded TargetPlatform 'Android_ASTCClient'
[2023.02.03-13.39.08:586][  0]LogTargetPlatformManager: Display: Loaded TargetPlatform 'Android_DXTClient'
[2023.02.03-13.39.08:587][  0]LogTargetPlatformManager: Display: Loaded TargetPlatform 'Android_ETC2Client'
[2023.02.03-13.39.08:587][  0]LogTargetPlatformManager: Display: Loaded TargetPlatform 'Android_Multi'
[2023.02.03-13.39.08:587][  0]LogTargetPlatformManager: Display: Loaded TargetPlatform 'Android_MultiClient'
[2023.02.03-13.39.08:606][  0]LogTargetPlatformManager: Display: Loaded TargetPlatform 'IOSClient'
[2023.02.03-13.39.08:606][  0]LogTargetPlatformManager: Display: Loaded TargetPlatform 'IOS'
[2023.02.03-13.39.08:615][  0]LogTargetPlatformManager: Display: Loaded TargetPlatform 'Linux'
[2023.02.03-13.39.08:620][  0]LogTargetPlatformManager: Display: Loaded TargetPlatform 'LinuxNoEditor'
[2023.02.03-13.39.08:625][  0]LogTargetPlatformManager: Display: Loaded TargetPlatform 'LinuxClient'
[2023.02.03-13.39.08:630][  0]LogTargetPlatformManager: Display: Loaded TargetPlatform 'LinuxServer'
[2023.02.03-13.39.08:638][  0]LogTargetPlatformManager: Display: Loaded TargetPlatform 'LinuxAArch64NoEditor'
[2023.02.03-13.39.08:643][  0]LogTargetPlatformManager: Display: Loaded TargetPlatform 'LinuxAArch64Client'
[2023.02.03-13.39.08:648][  0]LogTargetPlatformManager: Display: Loaded TargetPlatform 'LinuxAArch64Server'
[2023.02.03-13.39.08:667][  0]LogTargetPlatformManager: Display: Loaded TargetPlatform 'Lumin'
[2023.02.03-13.39.08:667][  0]LogTargetPlatformManager: Display: Loaded TargetPlatform 'LuminClient'
[2023.02.03-13.39.08:676][  0]LogTargetPlatformManager: Display: Loaded TargetPlatform 'MacNoEditor'
[2023.02.03-13.39.08:680][  0]LogTargetPlatformManager: Display: Loaded TargetPlatform 'Mac'
[2023.02.03-13.39.08:685][  0]LogTargetPlatformManager: Display: Loaded TargetPlatform 'MacClient'
[2023.02.03-13.39.08:690][  0]LogTargetPlatformManager: Display: Loaded TargetPlatform 'MacServer'
[2023.02.03-13.39.08:699][  0]LogTargetPlatformManager: Display: Loaded TargetPlatform 'TVOSClient'
[2023.02.03-13.39.08:699][  0]LogTargetPlatformManager: Display: Loaded TargetPlatform 'TVOS'
[2023.02.03-13.39.08:708][  0]LogTargetPlatformManager: Display: Loaded TargetPlatform 'WindowsNoEditor'
[2023.02.03-13.39.08:713][  0]LogTargetPlatformManager: Display: Loaded TargetPlatform 'Windows'
[2023.02.03-13.39.08:718][  0]LogTargetPlatformManager: Display: Loaded TargetPlatform 'WindowsClient'
[2023.02.03-13.39.08:723][  0]LogTargetPlatformManager: Display: Loaded TargetPlatform 'WindowsServer'
[2023.02.03-13.39.08:723][  0]LogTargetPlatformManager: Display: Building Assets For Windows
[2023.02.03-13.39.08:741][  0]LogAudioDebug: Display: Lib vorbis DLL was dynamically loaded.
[2023.02.03-13.39.08:778][  0]LogTextureFormatOodle: Display: Oodle Texture 2.9.0 init RDO Off
[2023.02.03-13.39.08:823][  0]LogRendererCore: Ray tracing is disabled. Reason: r.RayTracing=0.
[2023.02.03-13.39.08:824][  0]LogShaderCompilers: Guid format shader working directory is 2 characters bigger than the processId version (../../../../../../UnrealEngine/SnakeProject/Intermediate/Shaders/WorkingDirectory/8464/).
[2023.02.03-13.39.08:824][  0]LogShaderCompilers: Cleaned the shader compiler working directory 'C:/Users/home/AppData/Local/Temp/UnrealShaderWorkingDir/AA408B68402D65BC75AA63B8011C77BA/'.
[2023.02.03-13.39.08:824][  0]LogXGEController: Cannot use XGE Controller as Incredibuild is not installed on this machine.
[2023.02.03-13.39.08:824][  0]LogShaderCompilers: Cannot use XGE Shader Compiler as Incredibuild is not installed on this machine.
[2023.02.03-13.39.08:824][  0]LogShaderCompilers: Display: Using Local Shader Compiler.
[2023.02.03-13.39.09:466][  0]LogDerivedDataCache: Display: Max Cache Size: 512 MB
[2023.02.03-13.39.09:515][  0]LogDerivedDataCache: Loaded boot cache 0.05s 94MB C:/Users/home/AppData/Local/UnrealEngine/4.27/DerivedDataCache/Boot.ddc.
[2023.02.03-13.39.09:515][  0]LogDerivedDataCache: Display: Loaded Boot cache: C:/Users/home/AppData/Local/UnrealEngine/4.27/DerivedDataCache/Boot.ddc
[2023.02.03-13.39.09:515][  0]LogDerivedDataCache: FDerivedDataBackendGraph:  Pak pak cache file ../../../../../../UnrealEngine/SnakeProject/DerivedDataCache/DDC.ddp not found, will not use a pak cache.
[2023.02.03-13.39.09:516][  0]LogDerivedDataCache: Unable to find inner node Pak for hierarchical cache Hierarchy.
[2023.02.03-13.39.09:516][  0]LogDerivedDataCache: FDerivedDataBackendGraph:  CompressedPak pak cache file ../../../../../../UnrealEngine/SnakeProject/DerivedDataCache/Compressed.ddp not found, will not use a pak cache.
[2023.02.03-13.39.09:516][  0]LogDerivedDataCache: Unable to find inner node CompressedPak for hierarchical cache Hierarchy.
[2023.02.03-13.39.09:530][  0]LogDerivedDataCache: Display: Pak cache opened for reading ../../../Engine/DerivedDataCache/Compressed.ddp.
[2023.02.03-13.39.09:530][  0]LogDerivedDataCache: FDerivedDataBackendGraph:  EnterprisePak pak cache file ../../../Enterprise/DerivedDataCache/Compressed.ddp not found, will not use a pak cache.
[2023.02.03-13.39.09:530][  0]LogDerivedDataCache: Unable to find inner node EnterprisePak for hierarchical cache Hierarchy.
[2023.02.03-13.39.09:535][  0]LogDerivedDataCache: Speed tests for C:/Users/home/AppData/Local/UnrealEngine/Common/DerivedDataCache took 0.00 seconds
[2023.02.03-13.39.09:535][  0]LogDerivedDataCache: Display: Performance to C:/Users/home/AppData/Local/UnrealEngine/Common/DerivedDataCache: Latency=0.03ms. RandomReadSpeed=1526.83MBs, RandomWriteSpeed=247.60MBs. Assigned SpeedClass 'Local'
[2023.02.03-13.39.09:537][  0]LogDerivedDataCache: Using Local data cache path C:/Users/home/AppData/Local/UnrealEngine/Common/DerivedDataCache: Writable
[2023.02.03-13.39.09:537][  0]LogDerivedDataCache: Shared data cache path not found in *engine.ini, will not use an Shared cache.
[2023.02.03-13.39.09:537][  0]LogDerivedDataCache: Unable to find inner node Shared for hierarchical cache Hierarchy.
[2023.02.03-13.39.09:576][  0]LogSlate: Using FreeType 2.10.0
[2023.02.03-13.39.09:576][  0]LogSlate: SlateFontServices - WITH_FREETYPE: 1, WITH_HARFBUZZ: 1
[2023.02.03-13.39.09:597][  0]LogAssetRegistry: FAssetRegistry took 0.0037 seconds to start up
[2023.02.03-13.39.09:797][  0]LogInit: Selected Device Profile: [Windows]
[2023.02.03-13.39.09:798][  0]LogInit: Active device profile: [00000162030A0C00][0000016203CDA400 49] Windows
[2023.02.03-13.39.09:798][  0]LogInit: Profiles: [00000162030A0C00][0000016203CDA400 49] Windows, [0000016203072200][000001627985A540 49] WindowsNoEditor, [00000162030A1A00][00000162039CE680 49] WindowsServer, [0000016203072F00][00000162039D27C0 49] WindowsClient, [00000162030A2600][000001627D110940 49] IOS, [0000016203070E00][000001627D114AC0 49] iPadAir, [00000162030A0A00][000001627D118C40 49] iPadAir2, [0000016202FDCE00][000001627D134F00 49] IPadPro, [0000016202FDCF00][000001627D11CF40 49] iPadAir3, [0000016203072300][00000162797FD0C0 49] iPadAir4, [0000016202FDF400][0000016279801240 49] iPadMini2, [0000016203071600][00000162798053C0 49] iPadMini3, [0000016202FDFA00][000001627980D540 49] iPadMini4, [0000016203073300][000001627EF736C0 49] iPadMini5, [0000016203060800][0000016279811980 49] iPhone6, [0000016203060900][000001627EF7B9C0 49] iPodTouch6, [00000162030A3000][0000016279818100 49] iPhone7, [00000162030A3100][0000016279814140 49] iPodTouch7, [0000016202FDF500][000001627983A2C0 49] iPhone5S, [0000016202FDC600][000001627983E440 49] iPhone6Plus, [0000016203062800][00000162039D6580 49] iPhone6S, [0000016202FDD400][000001627EF766C0 49] iPhone6SPlus, [0000016203062600][0000016279808800 49] iPhone7Plus, [0000016202FDFD00][0000016204012940 49] iPhoneSE, [0000016203062500][0000016203C88AC0 49] iPhone8, [0000016202FDD800][0000016203C8CC40 49] iPhone8Plus, [00000162030A2A00][0000016203C90DC0 49] iPhoneX, [0000016202FDE800][0000016203C94F40 49] iPhoneXS, [00000162030A2D00][0000016203C990C0 49] iPhoneXSMax, [0000016202FDCD00][0000016203C9D240 49] iPhoneXR, [00000162030A1900][0000016203CA13C0 49] iPhone11, [0000016202FDE700][0000016203CA5540 49] iPhone11Pro, [00000162030A0E00][0000016203CA96C0 49] iPhone11ProMax, [0000016202FDC400][0000016203CAD840 49] iPhoneSE2, [00000162030A0400][0000016203CB19C0 49] iPhone12Mini, [0000016202FDCA00][000001627D0D5B40 49] iPhone12, [00000162030A3C00][000001627D0D8140 49] iPhone12Pro, [0000016202FDD600][000001627D0DC2C0 49] iPhone12ProMax, [00000162030A2000][000001627D0E0440 49] iPadPro105, [0000016202FDE500][000001627D0E45C0 49] iPadPro129, [00000162030A0600][000001627D0E8740 49] iPadPro97, [0000016202FDF900][0000016203C84880 49] iPadPro2_129, [00000162030A3E00][000001627D0EC9C0 49] iPad5, [0000016202FDD100][000001627D0F0B00 49] iPad6, [00000162030A3600][000001627D0F8C80 49] iPad7, [0000016202FDF700][000001627D0FCE00 49] iPad8, [00000162030A2400][000001627D100F80 49] iPadPro11, [0000016202FDC500][000001627D105100 49] iPadPro2_11, [00000162030A2E00][000001627D109280 49] iPadPro3_129, [0000016202FDEC00][000001627D10D400 49] iPadPro4_129, [00000162030A1700][0000016203B31580 49] AppleTV, [0000016202FDDC00][0000016203B35700 49] AppleTV4K, [00000162030A2500][0000016203B39880 49] TVOS, [0000016202FDDF00][0000016203B3DA00 49] Mac, [00000162030A0F00][0000016203B41B80 49] MacClient, [0000016202FDD200][0000016203B44180 49] MacNoEditor, [00000162030A0700][0000016203B48300 49] MacServer, [0000016202FDD500][0000016203B4C480 49] Linux, [00000162030A3B00][0000016203B50600 49] LinuxAArch64, [0000016202FDC200][0000016203B54780 49] LinuxNoEditor, [00000162030A0200][0000016203B58900 49] LinuxAArch64NoEditor, [0000016202FDF800][000001627D0F4A40 49] LinuxClient, [00000162030A3300][0000016203B5CB80 49] LinuxAArch64Client, [0000016202FDE200][0000016203B60CC0 49] LinuxServer, [00000162030A2200][0000016203B68E40 49] LinuxAArch64Server, [0000016202FDEA00][0000016203B6CFC0 49] Android, [00000162030A3F00][0000016203B71140 49] Android_Low, [0000016202FDCC00][0000016203B752C0 49] Android_Mid, [00000162030A1C00][0000016203B79440 49] Android_High, [0000016202FDE900][0000016203B7D5C0 49] Android_Default, [00000162030A1600][0000016203B81740 49] Android_Adreno4xx, [0000016202FDD900][0000016203B858C0 49] Android_Adreno5xx_Low, [00000162030A1300][0000016203B89A40 49] Android_Adreno5xx, [0000016203063800][0000016203B8DBC0 49] Android_Adreno6xx, [0000016203071500][0000016203B901C0 49] Android_Adreno6xx_Vulkan, [0000016203061E00][0000016203B94340 49] Android_Mali_T6xx, [0000016203071200][0000016203B984C0 49] Android_Mali_T7xx, [0000016203061400][0000016203B9C640 49] Android_Mali_T8xx, [0000016203071800][0000016203BA07C0 49] Android_Mali_G71, [0000016203060C00][0000016203BA4940 49] Android_Mali_G72, [0000016203072B00][0000016203BA8AC0 49] Android_Mali_G72_Vulkan, [0000016203060400][0000016203B64C00 49] Android_Mali_G76, [0000016203070B00][0000016203BACD40 49] Android_Mali_G76_Vulkan, [0000016203063400][0000016203BB0E80 49] Android_Mali_G77, [0000016203072700][0000016203BB4FC0 49] Android_Mali_G77_Vulkan, [0000016203062400][0000016203BBD140 49] Android_Mali_G78, [0000016203072E00][0000016203BC12C0 49] Android_Mali_G78_Vulkan, [0000016203063600][0000016203BC5440 49] Android_Mali_G710, [0000016203070F00][0000016203BC95C0 49] Android_Mali_G710_Vulkan, [0000016203062900][0000016203BCD740 49] Android_Vulkan_SM5, [0000016203073B00][00000162038F38C0 49] Android_PowerVR_G6xxx, [0000016203061500][00000162038F7A40 49] Android_PowerVR_GT7xxx, [0000016203072800][00000162038FBBC0 49] Android_PowerVR_GE8xxx, [0000016203061D00][00000162038FE1C0 49] Android_PowerVR_GM9xxx, [0000016203070D00][0000016203902340 49] Android_PowerVR_GM9xxx_Vulkan, [0000016203060F00][00000162039064C0 49] Android_TegraK1, [0000016203072D00][000001620390A640 49] Android_Unknown_Vulkan, [0000016203063200][000001620390E7C0 49] Lumin, [0000016203073500][0000016203912940 49] Lumin_Desktop, [0000016203061300][0000016203916AC0 49] HoloLens, 
[2023.02.03-13.39.09:924][  0]LogMeshReduction: Using QuadricMeshReduction for automatic static mesh reduction
[2023.02.03-13.39.09:924][  0]LogMeshReduction: Using SimplygonMeshReduction for automatic skeletal mesh reduction
[2023.02.03-13.39.09:925][  0]LogMeshReduction: Using ProxyLODMeshReduction for automatic mesh merging
[2023.02.03-13.39.09:925][  0]LogMeshReduction: No distributed automatic mesh merging module available
[2023.02.03-13.39.09:925][  0]LogMeshMerging: No distributed automatic mesh merging module available
[2023.02.03-13.39.09:938][  0]LogNetVersion: SnakeProject 1.0.0, NetCL: 17155196, EngineNetVer: 17, GameNetVer: 0 (Checksum: 2950587140)
[2023.02.03-13.39.10:227][  0]LogTexture: Default maximum texture size for cubemaps generated from long-lat sources has been changed from 512 to unlimited. In order to preserve old behaiour for '/Engine/MapTemplates/Sky/DaylightAmbientCubemap.DaylightAmbientCubemap', its maximum texture size has been explicitly set to 512.
[2023.02.03-13.39.10:274][  0]LogHMD: PokeAHoleMaterial loaded successfully
[2023.02.03-13.39.10:278][  0]LogUObjectArray: 17178 objects as part of root set at end of initial load.
[2023.02.03-13.39.10:278][  0]LogUObjectAllocator: 4302048 out of 0 bytes used by permanent object pool.
[2023.02.03-13.39.10:279][  0]LogUObjectArray: CloseDisregardForGC: 0/0 objects in disregard for GC pool
[2023.02.03-13.39.10:556][  0]LogNiagaraDebuggerClient: Niagara Debugger Client Initialized | Session: D4C4F2A74B64403F31B6BA9A6CAF8B3A | Instance: C29CF86945EB7FB562A8868724B6B7D1 (DESKTOP-T19TBEO-8464).
[2023.02.03-13.39.10:669][  0]LogPython: Using Python 3.7.7
[2023.02.03-13.39.11:139][  0]LogUdpMessaging: Initializing bridge on interface 0.0.0.0:0 to multicast group 230.0.0.1:6666.
[2023.02.03-13.39.11:153][  0]LogTcpMessaging: Initializing TcpMessaging bridge
[2023.02.03-13.39.11:238][  0]LogLinker: Warning: Failed to load '/Game/TopDownBP/TopDownOverview': Can't find file.
[2023.02.03-13.39.11:238][  0]LogLinker: Warning: Failed to load '/Game/TopDownBP/TopDownOverview': Can't find file.
[2023.02.03-13.39.11:239][  0]LogUObjectGlobals: Warning: Failed to find object 'Class /Game/TopDownBP/TopDownOverview.TopDownOverview_C'
[2023.02.03-13.39.11:321][  0]SourceControl: Source control is disabled
[2023.02.03-13.39.11:322][  0]SourceControl: Source control is disabled
[2023.02.03-13.39.11:325][  0]SourceControl: Source control is disabled
[2023.02.03-13.39.11:329][  0]SourceControl: Source control is disabled
[2023.02.03-13.39.11:342][  0]SourceControl: Source control is disabled
[2023.02.03-13.39.11:354][  0]LogUProjectInfo: Found projects:
[2023.02.03-13.39.11:577][  0]LogOpenImageDenoise: OIDN starting up
[2023.02.03-13.39.11:616][  0]LogAndroidPermission: UAndroidPermissionCallbackProxy::GetInstance
[2023.02.03-13.39.11:642][  0]LogAudioCaptureCore: Display: No Audio Capture implementations found. Audio input will be silent.
[2023.02.03-13.39.11:642][  0]LogAudioCaptureCore: Display: No Audio Capture implementations found. Audio input will be silent.
[2023.02.03-13.39.11:754][  0]LogCollectionManager: Loaded 0 collections in 0.000588 seconds
[2023.02.03-13.39.11:781][  0]LogFileCache: Scanning file cache for directory 'F:/UnrealEngine/SnakeProject/Saved/Collections/' took 0.00s
[2023.02.03-13.39.11:781][  0]LogFileCache: Scanning file cache for directory 'F:/UnrealEngine/SnakeProject/Content/Developers/home/Collections/' took 0.00s
[2023.02.03-13.39.11:781][  0]LogFileCache: Scanning file cache for directory 'F:/UnrealEngine/SnakeProject/Content/Collections/' took 0.00s
[2023.02.03-13.39.11:781][  0]LogOcInput: OculusInput pre-init called
[2023.02.03-13.39.11:978][  0]LogEngine: Initializing Engine...
[2023.02.03-13.39.12:032][  0]LogHMD: Failed to initialize OpenVR with code 117
[2023.02.03-13.39.12:124][  0]LogHMD: Optional extension XR_VARJO_quad_views is not available
[2023.02.03-13.39.12:124][  0]LogHMD: Warning: Required extension XR_EXT_eye_gaze_interaction is not available
[2023.02.03-13.39.12:124][  0]LogHMD: Could not enable all required OpenXR extensions for OpenXREyeTracker on current system. This plugin will be loaded but ignored, but will be enabled on a target platform that supports the required extension.
[2023.02.03-13.39.12:125][  0]LogHMD: Failed to get an OpenXR system, result is XR_ERROR_FORM_FACTOR_UNAVAILABLE. Please check that your runtime supports VR headsets.
[2023.02.03-13.39.12:125][  0]LogMagicLeap: Warning: VR disabled because ZI is not enabled.  To enable, in the editor, Edit -> Project Settings -> Plugins -> Magic Leap Plugin -> Enable Zero Iteration
[2023.02.03-13.39.12:126][  0]LogStats: UGameplayTagsManager::InitializeManager -  0.000 s
[2023.02.03-13.39.12:224][  0]LogInit: Initializing FReadOnlyCVARCache
[2023.02.03-13.39.12:231][  0]LogAIModule: Creating AISystem for world Untitled
[2023.02.03-13.39.12:243][  0]LogAudio: Display: Initializing Audio Device Manager...
[2023.02.03-13.39.12:247][  0]LogAudio: Display: Loading Default Audio Settings Objects...
[2023.02.03-13.39.12:248][  0]LogAudio: Display: No default SoundConcurrencyObject specified (or failed to load).
[2023.02.03-13.39.12:248][  0]LogAudio: Display: Audio Device Manager Initialized
[2023.02.03-13.39.12:248][  0]LogAudio: Display: Creating Audio Device:                 Id: 1, Scope: Shared, Realtime: True
[2023.02.03-13.39.12:248][  0]LogAudioMixer: Display: Audio Mixer Platform Settings:
[2023.02.03-13.39.12:249][  0]LogAudioMixer: Display: 	Sample Rate:						  48000
[2023.02.03-13.39.12:249][  0]LogAudioMixer: Display: 	Callback Buffer Frame Size Requested: 1024
[2023.02.03-13.39.12:249][  0]LogAudioMixer: Display: 	Callback Buffer Frame Size To Use:	  1024
[2023.02.03-13.39.12:249][  0]LogAudioMixer: Display: 	Number of buffers to queue:			  2
[2023.02.03-13.39.12:249][  0]LogAudioMixer: Display: 	Max Channels (voices):				  32
[2023.02.03-13.39.12:249][  0]LogAudioMixer: Display: 	Number of Async Source Workers:		  0
[2023.02.03-13.39.12:249][  0]LogAudio: Display: AudioDevice MaxSources: 32
[2023.02.03-13.39.12:249][  0]LogAudio: Display: Audio Spatialization Plugin: None (built-in).
[2023.02.03-13.39.12:250][  0]LogAudio: Display: Audio Reverb Plugin: None (built-in).
[2023.02.03-13.39.12:250][  0]LogAudio: Display: Audio Occlusion Plugin: None (built-in).
[2023.02.03-13.39.12:250][  0]LogAudioMixer: Display: Initializing audio mixer.
[2023.02.03-13.39.12:280][  0]LogAudioMixer: Display: 0: FrontLeft
[2023.02.03-13.39.12:280][  0]LogAudioMixer: Display: 1: FrontRight
[2023.02.03-13.39.12:334][  0]LogAudioMixer: Display: Using Audio Device Динамики (Realtek High Definition Audio)
[2023.02.03-13.39.12:337][  0]LogAudioMixer: Display: Initializing Sound Submixes...
[2023.02.03-13.39.12:338][  0]LogAudioMixer: Display: Creating Master Submix 'MasterSubmixDefault'
[2023.02.03-13.39.12:338][  0]LogAudioMixer: Display: Creating Master Submix 'MasterReverbSubmixDefault'
[2023.02.03-13.39.12:339][  0]LogAudioMixer: Display: Creating Master Submix 'MasterEQSubmixDefault'
[2023.02.03-13.39.12:339][  0]LogAudioMixer: FMixerPlatformXAudio2::StartAudioStream() called
[2023.02.03-13.39.12:339][  0]LogAudioMixer: Display: Output buffers initialized: Frames=1024, Channels=2, Samples=2048
[2023.02.03-13.39.12:341][  0]LogAudioMixer: Display: Starting AudioMixerPlatformInterface::RunInternal()
[2023.02.03-13.39.12:341][  0]LogAudioMixer: Display: FMixerPlatformXAudio2::SubmitBuffer() called for the first time
[2023.02.03-13.39.12:341][  0]LogInit: FAudioDevice initialized.
[2023.02.03-13.39.12:342][  0]LogAudio: Display: Audio Device (ID: 1) registered with world 'Untitled'.
[2023.02.03-13.39.12:342][  0]LogNetVersion: Set ProjectVersion to 1.0.0.0. Version Checksum will be recalculated on next use.
[2023.02.03-13.39.12:767][  0]LogDerivedDataCache: Saved boot cache 0.43s 94MB C:/Users/home/AppData/Local/UnrealEngine/4.27/DerivedDataCache/Boot.ddc.
[2023.02.03-13.39.12:768][  0]LogInit: Texture streaming: Enabled
[2023.02.03-13.39.12:781][  0]LogAnalytics: Display: [UEEditor.Rocket.Release] APIServer = https://datarouter.ol.epicgames.com/. AppVersion = 4.27.2-18319896+++UE4+Release-4.27
[2023.02.03-13.39.12:786][  0]LogEngineSessionManager: EngineSessionManager initialized
[2023.02.03-13.39.12:786][  0]LogEngineSessionManager: EngineSessionManager sent abnormal shutdown report. Type=Debugger, SessionId={D1B473B2-41A1-BB08-A82A-05B418BB2649}
[2023.02.03-13.39.12:786][  0]LogEditorSessionSummary: Verbose: Initializing EditorSessionSummaryWriter for editor session tracking
[2023.02.03-13.39.12:788][  0]LogEditorSessionSummary: EditorSessionSummaryWriter initialized
[2023.02.03-13.39.12:805][  0]LogInit: Transaction tracking system initialized
[2023.02.03-13.39.12:828][  0]BlueprintLog: New page: Editor Load
[2023.02.03-13.39.12:892][  0]LocalizationService: Localization service is disabled
[2023.02.03-13.39.12:918][  0]TimingProfiler: Initialize
[2023.02.03-13.39.12:918][  0]TimingProfiler: OnSessionChanged
[2023.02.03-13.39.12:918][  0]LoadingProfiler: Initialize
[2023.02.03-13.39.12:918][  0]LoadingProfiler: OnSessionChanged
[2023.02.03-13.39.12:918][  0]NetworkingProfiler: Initialize
[2023.02.03-13.39.12:919][  0]NetworkingProfiler: OnSessionChanged
[2023.02.03-13.39.12:919][  0]MemoryProfiler: Initialize
[2023.02.03-13.39.12:919][  0]MemoryProfiler: OnSessionChanged
[2023.02.03-13.39.13:051][  0]LogFileCache: Scanning file cache for directory 'F:/UnrealEngine/SnakeProject/Content/' took 0.00s
[2023.02.03-13.39.13:051][  0]LogCook: Display: CookSettings for Memory: MemoryMaxUsedVirtual 0MiB, MemoryMaxUsedPhysical 16384MiB, MemoryMinFreeVirtual 0MiB, MemoryMinFreePhysical 1024MiB
[2023.02.03-13.39.13:051][  0]LogCook: Display: Mobile HDR setting 1
[2023.02.03-13.39.13:390][  0]LogInit: Display: Engine is initialized. Leaving FEngineLoop::Init()
[2023.02.03-13.39.13:393][  0]SourceControl: Source control is disabled
[2023.02.03-13.39.13:393][  0]LogUnrealEdMisc: Loading editor; pre map load, took 7.436
[2023.02.03-13.39.13:393][  0]Cmd: MAP LOAD FILE="../../../../../../UnrealEngine/SnakeProject/Content/Main.umap" TEMPLATE=0 SHOWPROGRESS=1 FEATURELEVEL=3
[2023.02.03-13.39.13:393][  0]LightingResults: New page: Lighting Build
[2023.02.03-13.39.13:394][  0]LogWorld: UWorld::CleanupWorld for Untitled, bSessionEnded=true, bCleanupResources=true
[2023.02.03-13.39.13:395][  0]LogSlate: InvalidateAllWidgets triggered.  All widgets were invalidated
[2023.02.03-13.39.13:395][  0]MapCheck: New page: Map Check
[2023.02.03-13.39.13:395][  0]LightingResults: New page: Lighting Build
[2023.02.03-13.39.13:399][  0]LogAudio: Display: Audio Device unregistered from world 'None'.
[2023.02.03-13.39.13:403][  0]LogUObjectHash: Compacting FUObjectHashTables data took   0.73ms
[2023.02.03-13.39.13:461][  0]LogAudio: Display: Audio Device (ID: 1) registered with world 'Main'.
[2023.02.03-13.39.13:462][  0]LogAIModule: Creating AISystem for world Main
[2023.02.03-13.39.13:470][  0]LogEditorServer: Finished looking for orphan Actors (0.000 secs)
[2023.02.03-13.39.13:478][  0]LogUObjectHash: Compacting FUObjectHashTables data took   0.71ms
[2023.02.03-13.39.13:478][  0]Cmd: MAP CHECKDEP NOCLEARLOG
[2023.02.03-13.39.13:478][  0]MapCheck: Map check complete: 0 Error(s), 0 Warning(s), took 0,079ms to complete.
[2023.02.03-13.39.13:478][  0]LogFileHelpers: Loading map 'Main' took 0.085
[2023.02.03-13.39.13:480][  0]LogUnrealEdMisc: Total Editor Startup Time, took 7.523
[2023.02.03-13.39.13:596][  0]LogSlate: Updating window title bar state: overlay mode, drag disabled, window buttons hidden, title bar hidden
[2023.02.03-13.39.13:601][  0]LogSlate: Updating window title bar state: overlay mode, drag disabled, window buttons hidden, title bar hidden
[2023.02.03-13.39.13:606][  0]LogSlate: Updating window title bar state: overlay mode, drag disabled, window buttons hidden, title bar hidden
[2023.02.03-13.39.13:612][  0]LogSlate: Updating window title bar state: overlay mode, drag disabled, window buttons hidden, title bar hidden
[2023.02.03-13.39.13:622][  0]LogNativeClassHierarchy: Verbose: Native class hierarchy populated in 0.0079 seconds. Added 3829 classes and 930 folders.
[2023.02.03-13.39.13:625][  0]LogNativeClassHierarchy: Verbose: Native class hierarchy updated for 'WidgetCarousel' in 0.0002 seconds. Added 0 classes and 0 folders.
[2023.02.03-13.39.13:628][  0]LogPakFile: PakFile PrimaryIndexSize=187
[2023.02.03-13.39.13:628][  0]LogPakFile: PakFile PathHashIndexSize=101
[2023.02.03-13.39.13:628][  0]LogPakFile: PakFile FullDirectoryIndexSize=148
[2023.02.03-13.39.13:628][  0]LogShaderLibrary: Display: ShaderCodeLibraryPakFileMountedCallback: PakFile 'F:/Games/EGS/UE_4.27/FeaturePacks/FP_FirstPerson.upack' (chunk index -1, root 'root:/') mounted
[2023.02.03-13.39.13:628][  0]LogShaderLibrary: Display: ShaderCodeLibraryPakFileMountedCallback: pending pak file info (ChunkID:-1 Root:root:/ File:F:/Games/EGS/UE_4.27/FeaturePacks/FP_FirstPerson.upack)
[2023.02.03-13.39.13:628][  0]LogPakFile: OnPakFileMounted2Time == 0.000198
[2023.02.03-13.39.13:628][  0]LogPakFile: PakFile PrimaryIndexSize=189
[2023.02.03-13.39.13:628][  0]LogPakFile: PakFile PathHashIndexSize=101
[2023.02.03-13.39.13:628][  0]LogPakFile: PakFile FullDirectoryIndexSize=152
[2023.02.03-13.39.13:628][  0]LogShaderLibrary: Display: ShaderCodeLibraryPakFileMountedCallback: PakFile 'F:/Games/EGS/UE_4.27/FeaturePacks/FP_FirstPersonBP.upack' (chunk index -1, root 'root:/') mounted
[2023.02.03-13.39.13:628][  0]LogShaderLibrary: Display: ShaderCodeLibraryPakFileMountedCallback: pending pak file info (ChunkID:-1 Root:root:/ File:F:/Games/EGS/UE_4.27/FeaturePacks/FP_FirstPersonBP.upack)
[2023.02.03-13.39.13:628][  0]LogPakFile: OnPakFileMounted2Time == 0.000199
[2023.02.03-13.39.13:629][  0]LogPakFile: PakFile PrimaryIndexSize=191
[2023.02.03-13.39.13:629][  0]LogPakFile: PakFile PathHashIndexSize=101
[2023.02.03-13.39.13:629][  0]LogPakFile: PakFile FullDirectoryIndexSize=160
[2023.02.03-13.39.13:629][  0]LogShaderLibrary: Display: ShaderCodeLibraryPakFileMountedCallback: PakFile 'F:/Games/EGS/UE_4.27/FeaturePacks/MobileStarterContent.upack' (chunk index -1, root 'root:/') mounted
[2023.02.03-13.39.13:629][  0]LogShaderLibrary: Display: ShaderCodeLibraryPakFileMountedCallback: pending pak file info (ChunkID:-1 Root:root:/ File:F:/Games/EGS/UE_4.27/FeaturePacks/MobileStarterContent.upack)
[2023.02.03-13.39.13:629][  0]LogPakFile: OnPakFileMounted2Time == 0.000181
[2023.02.03-13.39.13:629][  0]LogPakFile: PakFile PrimaryIndexSize=185
[2023.02.03-13.39.13:629][  0]LogPakFile: PakFile PathHashIndexSize=101
[2023.02.03-13.39.13:630][  0]LogPakFile: PakFile FullDirectoryIndexSize=148
[2023.02.03-13.39.13:630][  0]LogShaderLibrary: Display: ShaderCodeLibraryPakFileMountedCallback: PakFile 'F:/Games/EGS/UE_4.27/FeaturePacks/StarterContent.upack' (chunk index -1, root 'root:/') mounted
[2023.02.03-13.39.13:630][  0]LogShaderLibrary: Display: ShaderCodeLibraryPakFileMountedCallback: pending pak file info (ChunkID:-1 Root:root:/ File:F:/Games/EGS/UE_4.27/FeaturePacks/StarterContent.upack)
[2023.02.03-13.39.13:630][  0]LogPakFile: OnPakFileMounted2Time == 0.000125
[2023.02.03-13.39.13:630][  0]LogPakFile: PakFile PrimaryIndexSize=190
[2023.02.03-13.39.13:630][  0]LogPakFile: PakFile PathHashIndexSize=101
[2023.02.03-13.39.13:630][  0]LogPakFile: PakFile FullDirectoryIndexSize=154
[2023.02.03-13.39.13:630][  0]LogShaderLibrary: Display: ShaderCodeLibraryPakFileMountedCallback: PakFile 'F:/Games/EGS/UE_4.27/FeaturePacks/TP_2DSideScroller.upack' (chunk index -1, root 'root:/') mounted
[2023.02.03-13.39.13:630][  0]LogShaderLibrary: Display: ShaderCodeLibraryPakFileMountedCallback: pending pak file info (ChunkID:-1 Root:root:/ File:F:/Games/EGS/UE_4.27/FeaturePacks/TP_2DSideScroller.upack)
[2023.02.03-13.39.13:630][  0]LogPakFile: OnPakFileMounted2Time == 0.000127
[2023.02.03-13.39.13:631][  0]LogPakFile: PakFile PrimaryIndexSize=192
[2023.02.03-13.39.13:631][  0]LogPakFile: PakFile PathHashIndexSize=101
[2023.02.03-13.39.13:631][  0]LogPakFile: PakFile FullDirectoryIndexSize=158
[2023.02.03-13.39.13:631][  0]LogShaderLibrary: Display: ShaderCodeLibraryPakFileMountedCallback: PakFile 'F:/Games/EGS/UE_4.27/FeaturePacks/TP_2DSideScrollerBP.upack' (chunk index -1, root 'root:/') mounted
[2023.02.03-13.39.13:631][  0]LogShaderLibrary: Display: ShaderCodeLibraryPakFileMountedCallback: pending pak file info (ChunkID:-1 Root:root:/ File:F:/Games/EGS/UE_4.27/FeaturePacks/TP_2DSideScrollerBP.upack)
[2023.02.03-13.39.13:631][  0]LogPakFile: OnPakFileMounted2Time == 0.000125
[2023.02.03-13.39.13:631][  0]LogPakFile: PakFile PrimaryIndexSize=182
[2023.02.03-13.39.13:632][  0]LogPakFile: PakFile PathHashIndexSize=101
[2023.02.03-13.39.13:632][  0]LogPakFile: PakFile FullDirectoryIndexSize=138
[2023.02.03-13.39.13:632][  0]LogShaderLibrary: Display: ShaderCodeLibraryPakFileMountedCallback: PakFile 'F:/Games/EGS/UE_4.27/FeaturePacks/TP_Flying.upack' (chunk index -1, root 'root:/') mounted
[2023.02.03-13.39.13:632][  0]LogShaderLibrary: Display: ShaderCodeLibraryPakFileMountedCallback: pending pak file info (ChunkID:-1 Root:root:/ File:F:/Games/EGS/UE_4.27/FeaturePacks/TP_Flying.upack)
[2023.02.03-13.39.13:632][  0]LogPakFile: OnPakFileMounted2Time == 0.000124
[2023.02.03-13.39.13:632][  0]LogPakFile: PakFile PrimaryIndexSize=184
[2023.02.03-13.39.13:632][  0]LogPakFile: PakFile PathHashIndexSize=101
[2023.02.03-13.39.13:632][  0]LogPakFile: PakFile FullDirectoryIndexSize=142
[2023.02.03-13.39.13:632][  0]LogShaderLibrary: Display: ShaderCodeLibraryPakFileMountedCallback: PakFile 'F:/Games/EGS/UE_4.27/FeaturePacks/TP_FlyingBP.upack' (chunk index -1, root 'root:/') mounted
[2023.02.03-13.39.13:632][  0]LogShaderLibrary: Display: ShaderCodeLibraryPakFileMountedCallback: pending pak file info (ChunkID:-1 Root:root:/ File:F:/Games/EGS/UE_4.27/FeaturePacks/TP_FlyingBP.upack)
[2023.02.03-13.39.13:632][  0]LogPakFile: OnPakFileMounted2Time == 0.000125
[2023.02.03-13.39.13:633][  0]LogPakFile: PakFile PrimaryIndexSize=188
[2023.02.03-13.39.13:633][  0]LogPakFile: PakFile PathHashIndexSize=101
[2023.02.03-13.39.13:633][  0]LogPakFile: PakFile FullDirectoryIndexSize=150
[2023.02.03-13.39.13:633][  0]LogShaderLibrary: Display: ShaderCodeLibraryPakFileMountedCallback: PakFile 'F:/Games/EGS/UE_4.27/FeaturePacks/TP_HandheldARBP.upack' (chunk index -1, root 'root:/') mounted
[2023.02.03-13.39.13:633][  0]LogShaderLibrary: Display: ShaderCodeLibraryPakFileMountedCallback: pending pak file info (ChunkID:-1 Root:root:/ File:F:/Games/EGS/UE_4.27/FeaturePacks/TP_HandheldARBP.upack)
[2023.02.03-13.39.13:633][  0]LogPakFile: OnPakFileMounted2Time == 0.000126
[2023.02.03-13.39.13:634][  0]LogPakFile: PakFile PrimaryIndexSize=182
[2023.02.03-13.39.13:634][  0]LogPakFile: PakFile PathHashIndexSize=101
[2023.02.03-13.39.13:634][  0]LogPakFile: PakFile FullDirectoryIndexSize=138
[2023.02.03-13.39.13:634][  0]LogShaderLibrary: Display: ShaderCodeLibraryPakFileMountedCallback: PakFile 'F:/Games/EGS/UE_4.27/FeaturePacks/TP_Puzzle.upack' (chunk index -1, root 'root:/') mounted
[2023.02.03-13.39.13:634][  0]LogShaderLibrary: Display: ShaderCodeLibraryPakFileMountedCallback: pending pak file info (ChunkID:-1 Root:root:/ File:F:/Games/EGS/UE_4.27/FeaturePacks/TP_Puzzle.upack)
[2023.02.03-13.39.13:634][  0]LogPakFile: OnPakFileMounted2Time == 0.000123
[2023.02.03-13.39.13:634][  0]LogPakFile: PakFile PrimaryIndexSize=184
[2023.02.03-13.39.13:634][  0]LogPakFile: PakFile PathHashIndexSize=101
[2023.02.03-13.39.13:634][  0]LogPakFile: PakFile FullDirectoryIndexSize=142
[2023.02.03-13.39.13:634][  0]LogShaderLibrary: Display: ShaderCodeLibraryPakFileMountedCallback: PakFile 'F:/Games/EGS/UE_4.27/FeaturePacks/TP_PuzzleBP.upack' (chunk index -1, root 'root:/') mounted
[2023.02.03-13.39.13:635][  0]LogShaderLibrary: Display: ShaderCodeLibraryPakFileMountedCallback: pending pak file info (ChunkID:-1 Root:root:/ File:F:/Games/EGS/UE_4.27/FeaturePacks/TP_PuzzleBP.upack)
[2023.02.03-13.39.13:635][  0]LogPakFile: OnPakFileMounted2Time == 0.000129
[2023.02.03-13.39.13:635][  0]LogPakFile: PakFile PrimaryIndexSize=183
[2023.02.03-13.39.13:635][  0]LogPakFile: PakFile PathHashIndexSize=101
[2023.02.03-13.39.13:635][  0]LogPakFile: PakFile FullDirectoryIndexSize=140
[2023.02.03-13.39.13:635][  0]LogShaderLibrary: Display: ShaderCodeLibraryPakFileMountedCallback: PakFile 'F:/Games/EGS/UE_4.27/FeaturePacks/TP_Rolling.upack' (chunk index -1, root 'root:/') mounted
[2023.02.03-13.39.13:635][  0]LogShaderLibrary: Display: ShaderCodeLibraryPakFileMountedCallback: pending pak file info (ChunkID:-1 Root:root:/ File:F:/Games/EGS/UE_4.27/FeaturePacks/TP_Rolling.upack)
[2023.02.03-13.39.13:635][  0]LogPakFile: OnPakFileMounted2Time == 0.000139
[2023.02.03-13.39.13:636][  0]LogPakFile: PakFile PrimaryIndexSize=185
[2023.02.03-13.39.13:636][  0]LogPakFile: PakFile PathHashIndexSize=101
[2023.02.03-13.39.13:636][  0]LogPakFile: PakFile FullDirectoryIndexSize=144
[2023.02.03-13.39.13:636][  0]LogShaderLibrary: Display: ShaderCodeLibraryPakFileMountedCallback: PakFile 'F:/Games/EGS/UE_4.27/FeaturePacks/TP_RollingBP.upack' (chunk index -1, root 'root:/') mounted
[2023.02.03-13.39.13:636][  0]LogShaderLibrary: Display: ShaderCodeLibraryPakFileMountedCallback: pending pak file info (ChunkID:-1 Root:root:/ File:F:/Games/EGS/UE_4.27/FeaturePacks/TP_RollingBP.upack)
[2023.02.03-13.39.13:636][  0]LogPakFile: OnPakFileMounted2Time == 0.000133
[2023.02.03-13.39.13:636][  0]LogPakFile: PakFile PrimaryIndexSize=188
[2023.02.03-13.39.13:636][  0]LogPakFile: PakFile PathHashIndexSize=101
[2023.02.03-13.39.13:637][  0]LogPakFile: PakFile FullDirectoryIndexSize=150
[2023.02.03-13.39.13:637][  0]LogShaderLibrary: Display: ShaderCodeLibraryPakFileMountedCallback: PakFile 'F:/Games/EGS/UE_4.27/FeaturePacks/TP_SideScroller.upack' (chunk index -1, root 'root:/') mounted
[2023.02.03-13.39.13:637][  0]LogShaderLibrary: Display: ShaderCodeLibraryPakFileMountedCallback: pending pak file info (ChunkID:-1 Root:root:/ File:F:/Games/EGS/UE_4.27/FeaturePacks/TP_SideScroller.upack)
[2023.02.03-13.39.13:637][  0]LogPakFile: OnPakFileMounted2Time == 0.000125
[2023.02.03-13.39.13:637][  0]LogPakFile: PakFile PrimaryIndexSize=190
[2023.02.03-13.39.13:637][  0]LogPakFile: PakFile PathHashIndexSize=101
[2023.02.03-13.39.13:637][  0]LogPakFile: PakFile FullDirectoryIndexSize=154
[2023.02.03-13.39.13:637][  0]LogShaderLibrary: Display: ShaderCodeLibraryPakFileMountedCallback: PakFile 'F:/Games/EGS/UE_4.27/FeaturePacks/TP_SideScrollerBP.upack' (chunk index -1, root 'root:/') mounted
[2023.02.03-13.39.13:637][  0]LogShaderLibrary: Display: ShaderCodeLibraryPakFileMountedCallback: pending pak file info (ChunkID:-1 Root:root:/ File:F:/Games/EGS/UE_4.27/FeaturePacks/TP_SideScrollerBP.upack)
[2023.02.03-13.39.13:637][  0]LogPakFile: OnPakFileMounted2Time == 0.000125
[2023.02.03-13.39.13:638][  0]LogPakFile: PakFile PrimaryIndexSize=187
[2023.02.03-13.39.13:638][  0]LogPakFile: PakFile PathHashIndexSize=101
[2023.02.03-13.39.13:638][  0]LogPakFile: PakFile FullDirectoryIndexSize=148
[2023.02.03-13.39.13:638][  0]LogShaderLibrary: Display: ShaderCodeLibraryPakFileMountedCallback: PakFile 'F:/Games/EGS/UE_4.27/FeaturePacks/TP_ThirdPerson.upack' (chunk index -1, root 'root:/') mounted
[2023.02.03-13.39.13:638][  0]LogShaderLibrary: Display: ShaderCodeLibraryPakFileMountedCallback: pending pak file info (ChunkID:-1 Root:root:/ File:F:/Games/EGS/UE_4.27/FeaturePacks/TP_ThirdPerson.upack)
[2023.02.03-13.39.13:638][  0]LogPakFile: OnPakFileMounted2Time == 0.000122
[2023.02.03-13.39.13:639][  0]LogPakFile: PakFile PrimaryIndexSize=189
[2023.02.03-13.39.13:639][  0]LogPakFile: PakFile PathHashIndexSize=101
[2023.02.03-13.39.13:639][  0]LogPakFile: PakFile FullDirectoryIndexSize=152
[2023.02.03-13.39.13:639][  0]LogShaderLibrary: Display: ShaderCodeLibraryPakFileMountedCallback: PakFile 'F:/Games/EGS/UE_4.27/FeaturePacks/TP_ThirdPersonBP.upack' (chunk index -1, root 'root:/') mounted
[2023.02.03-13.39.13:639][  0]LogShaderLibrary: Display: ShaderCodeLibraryPakFileMountedCallback: pending pak file info (ChunkID:-1 Root:root:/ File:F:/Games/EGS/UE_4.27/FeaturePacks/TP_ThirdPersonBP.upack)
[2023.02.03-13.39.13:639][  0]LogPakFile: OnPakFileMounted2Time == 0.000124
[2023.02.03-13.39.13:639][  0]LogPakFile: PakFile PrimaryIndexSize=183
[2023.02.03-13.39.13:639][  0]LogPakFile: PakFile PathHashIndexSize=101
[2023.02.03-13.39.13:639][  0]LogPakFile: PakFile FullDirectoryIndexSize=140
[2023.02.03-13.39.13:639][  0]LogShaderLibrary: Display: ShaderCodeLibraryPakFileMountedCallback: PakFile 'F:/Games/EGS/UE_4.27/FeaturePacks/TP_TopDown.upack' (chunk index -1, root 'root:/') mounted
[2023.02.03-13.39.13:640][  0]LogShaderLibrary: Display: ShaderCodeLibraryPakFileMountedCallback: pending pak file info (ChunkID:-1 Root:root:/ File:F:/Games/EGS/UE_4.27/FeaturePacks/TP_TopDown.upack)
[2023.02.03-13.39.13:640][  0]LogPakFile: OnPakFileMounted2Time == 0.000133
[2023.02.03-13.39.13:640][  0]LogPakFile: PakFile PrimaryIndexSize=185
[2023.02.03-13.39.13:640][  0]LogPakFile: PakFile PathHashIndexSize=101
[2023.02.03-13.39.13:640][  0]LogPakFile: PakFile FullDirectoryIndexSize=144
[2023.02.03-13.39.13:640][  0]LogShaderLibrary: Display: ShaderCodeLibraryPakFileMountedCallback: PakFile 'F:/Games/EGS/UE_4.27/FeaturePacks/TP_TopDownBP.upack' (chunk index -1, root 'root:/') mounted
[2023.02.03-13.39.13:640][  0]LogShaderLibrary: Display: ShaderCodeLibraryPakFileMountedCallback: pending pak file info (ChunkID:-1 Root:root:/ File:F:/Games/EGS/UE_4.27/FeaturePacks/TP_TopDownBP.upack)
[2023.02.03-13.39.13:640][  0]LogPakFile: OnPakFileMounted2Time == 0.000124
[2023.02.03-13.39.13:641][  0]LogPakFile: PakFile PrimaryIndexSize=185
[2023.02.03-13.39.13:641][  0]LogPakFile: PakFile PathHashIndexSize=101
[2023.02.03-13.39.13:641][  0]LogPakFile: PakFile FullDirectoryIndexSize=144
[2023.02.03-13.39.13:641][  0]LogShaderLibrary: Display: ShaderCodeLibraryPakFileMountedCallback: PakFile 'F:/Games/EGS/UE_4.27/FeaturePacks/TP_TwinStick.upack' (chunk index -1, root 'root:/') mounted
[2023.02.03-13.39.13:641][  0]LogShaderLibrary: Display: ShaderCodeLibraryPakFileMountedCallback: pending pak file info (ChunkID:-1 Root:root:/ File:F:/Games/EGS/UE_4.27/FeaturePacks/TP_TwinStick.upack)
[2023.02.03-13.39.13:641][  0]LogPakFile: OnPakFileMounted2Time == 0.000135
[2023.02.03-13.39.13:641][  0]LogPakFile: PakFile PrimaryIndexSize=187
[2023.02.03-13.39.13:641][  0]LogPakFile: PakFile PathHashIndexSize=101
[2023.02.03-13.39.13:642][  0]LogPakFile: PakFile FullDirectoryIndexSize=148
[2023.02.03-13.39.13:642][  0]LogShaderLibrary: Display: ShaderCodeLibraryPakFileMountedCallback: PakFile 'F:/Games/EGS/UE_4.27/FeaturePacks/TP_TwinStickBP.upack' (chunk index -1, root 'root:/') mounted
[2023.02.03-13.39.13:642][  0]LogShaderLibrary: Display: ShaderCodeLibraryPakFileMountedCallback: pending pak file info (ChunkID:-1 Root:root:/ File:F:/Games/EGS/UE_4.27/FeaturePacks/TP_TwinStickBP.upack)
[2023.02.03-13.39.13:642][  0]LogPakFile: OnPakFileMounted2Time == 0.000117
[2023.02.03-13.39.13:642][  0]LogPakFile: PakFile PrimaryIndexSize=183
[2023.02.03-13.39.13:642][  0]LogPakFile: PakFile PathHashIndexSize=101
[2023.02.03-13.39.13:642][  0]LogPakFile: PakFile FullDirectoryIndexSize=140
[2023.02.03-13.39.13:642][  0]LogShaderLibrary: Display: ShaderCodeLibraryPakFileMountedCallback: PakFile 'F:/Games/EGS/UE_4.27/FeaturePacks/TP_Vehicle.upack' (chunk index -1, root 'root:/') mounted
[2023.02.03-13.39.13:642][  0]LogShaderLibrary: Display: ShaderCodeLibraryPakFileMountedCallback: pending pak file info (ChunkID:-1 Root:root:/ File:F:/Games/EGS/UE_4.27/FeaturePacks/TP_Vehicle.upack)
[2023.02.03-13.39.13:642][  0]LogPakFile: OnPakFileMounted2Time == 0.000126
[2023.02.03-13.39.13:643][  0]LogPakFile: PakFile PrimaryIndexSize=186
[2023.02.03-13.39.13:643][  0]LogPakFile: PakFile PathHashIndexSize=101
[2023.02.03-13.39.13:643][  0]LogPakFile: PakFile FullDirectoryIndexSize=146
[2023.02.03-13.39.13:643][  0]LogShaderLibrary: Display: ShaderCodeLibraryPakFileMountedCallback: PakFile 'F:/Games/EGS/UE_4.27/FeaturePacks/TP_VehicleAdv.upack' (chunk index -1, root 'root:/') mounted
[2023.02.03-13.39.13:643][  0]LogShaderLibrary: Display: ShaderCodeLibraryPakFileMountedCallback: pending pak file info (ChunkID:-1 Root:root:/ File:F:/Games/EGS/UE_4.27/FeaturePacks/TP_VehicleAdv.upack)
[2023.02.03-13.39.13:643][  0]LogPakFile: OnPakFileMounted2Time == 0.000122
[2023.02.03-13.39.13:643][  0]LogPakFile: PakFile PrimaryIndexSize=188
[2023.02.03-13.39.13:643][  0]LogPakFile: PakFile PathHashIndexSize=101
[2023.02.03-13.39.13:644][  0]LogPakFile: PakFile FullDirectoryIndexSize=150
[2023.02.03-13.39.13:644][  0]LogShaderLibrary: Display: ShaderCodeLibraryPakFileMountedCallback: PakFile 'F:/Games/EGS/UE_4.27/FeaturePacks/TP_VehicleAdvBP.upack' (chunk index -1, root 'root:/') mounted
[2023.02.03-13.39.13:644][  0]LogShaderLibrary: Display: ShaderCodeLibraryPakFileMountedCallback: pending pak file info (ChunkID:-1 Root:root:/ File:F:/Games/EGS/UE_4.27/FeaturePacks/TP_VehicleAdvBP.upack)
[2023.02.03-13.39.13:644][  0]LogPakFile: OnPakFileMounted2Time == 0.000122
[2023.02.03-13.39.13:644][  0]LogPakFile: PakFile PrimaryIndexSize=185
[2023.02.03-13.39.13:644][  0]LogPakFile: PakFile PathHashIndexSize=101
[2023.02.03-13.39.13:644][  0]LogPakFile: PakFile FullDirectoryIndexSize=144
[2023.02.03-13.39.13:644][  0]LogShaderLibrary: Display: ShaderCodeLibraryPakFileMountedCallback: PakFile 'F:/Games/EGS/UE_4.27/FeaturePacks/TP_VehicleBP.upack' (chunk index -1, root 'root:/') mounted
[2023.02.03-13.39.13:644][  0]LogShaderLibrary: Display: ShaderCodeLibraryPakFileMountedCallback: pending pak file info (ChunkID:-1 Root:root:/ File:F:/Games/EGS/UE_4.27/FeaturePacks/TP_VehicleBP.upack)
[2023.02.03-13.39.13:644][  0]LogPakFile: OnPakFileMounted2Time == 0.000121
[2023.02.03-13.39.13:645][  0]LogPakFile: PakFile PrimaryIndexSize=192
[2023.02.03-13.39.13:645][  0]LogPakFile: PakFile PathHashIndexSize=101
[2023.02.03-13.39.13:645][  0]LogPakFile: PakFile FullDirectoryIndexSize=158
[2023.02.03-13.39.13:645][  0]LogShaderLibrary: Display: ShaderCodeLibraryPakFileMountedCallback: PakFile 'F:/Games/EGS/UE_4.27/FeaturePacks/TP_VirtualRealityBP.upack' (chunk index -1, root 'root:/') mounted
[2023.02.03-13.39.13:645][  0]LogShaderLibrary: Display: ShaderCodeLibraryPakFileMountedCallback: pending pak file info (ChunkID:-1 Root:root:/ File:F:/Games/EGS/UE_4.27/FeaturePacks/TP_VirtualRealityBP.upack)
[2023.02.03-13.39.13:645][  0]LogPakFile: OnPakFileMounted2Time == 0.000126
[2023.02.03-13.39.13:674][  0]LogNativeClassHierarchy: Verbose: Native class hierarchy updated for 'AddContentDialog' in 0.0003 seconds. Added 0 classes and 0 folders.
[2023.02.03-13.39.13:675][  0]LogNativeClassHierarchy: Verbose: Native class hierarchy updated for 'SceneOutliner' in 0.0002 seconds. Added 2 classes and 0 folders.
[2023.02.03-13.39.13:970][  0]LogSlate: Only BGRA pngs, bmps or icos are supported in by External Image Picker
[2023.02.03-13.39.14:041][  0]LogSlate: Took 0.000143 seconds to synchronously load lazily loaded font '../../../Engine/Content/Slate/Fonts/Roboto-Regular.ttf' (155K)
[2023.02.03-13.39.14:042][  0]LogSlate: Took 0.000120 seconds to synchronously load lazily loaded font '../../../Engine/Content/Editor/Slate/Fonts/FontAwesome.ttf' (139K)
[2023.02.03-13.39.14:044][  0]LogSlate: Took 0.000103 seconds to synchronously load lazily loaded font '../../../Engine/Content/Slate/Fonts/Roboto-Bold.ttf' (160K)
[2023.02.03-13.39.14:104][  0]LogRenderer: Reallocating scene render targets to support 1964x960 Format 10 NumSamples 1 (Frame:1).
[2023.02.03-13.39.14:185][  0]LogNativeClassHierarchy: Verbose: Native class hierarchy updated for 'HierarchicalLODOutliner' in 0.0002 seconds. Added 0 classes and 0 folders.
[2023.02.03-13.39.14:186][  0]LogLoad: (Engine Initialization) Total time: 8.23 seconds
[2023.02.03-13.39.14:186][  0]LogLoad: (Engine Initialization) Total Blueprint compile time: 0.00 seconds
[2023.02.03-13.39.14:333][  0]LogAssetRegistry: Asset discovery search completed in 4.7386 seconds
[2023.02.03-13.39.14:337][  0]LogCollectionManager: Fixed up redirectors for 0 collections in 0.000003 seconds (updated 0 objects)
[2023.02.03-13.39.14:337][  0]LogContentStreaming: Texture pool size now 1000 MB
[2023.02.03-13.39.16:241][205]LogTemp: Repeating last play command: Selected Viewport
[2023.02.03-13.39.16:246][205]LogPlayLevel: PlayLevel: No blueprints needed recompiling
[2023.02.03-13.39.16:246][205]PIE: New page: PIE session: Main (3 февр. 2023 г., 19:39:16)
[2023.02.03-13.39.16:248][205]LogOnline: OSS: Creating online subsystem instance for: NULL
[2023.02.03-13.39.16:250][205]LogOnline: OSS: TryLoadSubsystemAndSetDefault: Loaded subsystem for module [NULL]
[2023.02.03-13.39.16:250][205]LogPlayLevel: Creating play world package: /Game/UEDPIE_0_Main
[2023.02.03-13.39.16:252][205]LogPlayLevel: PIE: StaticDuplicateObject took: (0.001900s)
[2023.02.03-13.39.16:253][205]LogAIModule: Creating AISystem for world Main
[2023.02.03-13.39.16:253][205]LogPlayLevel: PIE: World Init took: (0.000957s)
[2023.02.03-13.39.16:253][205]LogPlayLevel: PIE: Created PIE world by copying editor world from /Game/Main.Main to /Game/UEDPIE_0_Main.Main (0.003144s)
[2023.02.03-13.39.16:262][205]LogUObjectHash: Compacting FUObjectHashTables data took   0.52ms
[2023.02.03-13.39.16:263][205]LogAudio: Display: Creating Audio Device:                 Id: 2, Scope: Unique, Realtime: True
[2023.02.03-13.39.16:263][205]LogAudioMixer: Display: Audio Mixer Platform Settings:
[2023.02.03-13.39.16:263][205]LogAudioMixer: Display: 	Sample Rate:						  48000
[2023.02.03-13.39.16:263][205]LogAudioMixer: Display: 	Callback Buffer Frame Size Requested: 1024
[2023.02.03-13.39.16:263][205]LogAudioMixer: Display: 	Callback Buffer Frame Size To Use:	  1024
[2023.02.03-13.39.16:264][205]LogAudioMixer: Display: 	Number of buffers to queue:			  2
[2023.02.03-13.39.16:264][205]LogAudioMixer: Display: 	Max Channels (voices):				  32
[2023.02.03-13.39.16:264][205]LogAudioMixer: Display: 	Number of Async Source Workers:		  0
[2023.02.03-13.39.16:264][205]LogAudio: Display: AudioDevice MaxSources: 32
[2023.02.03-13.39.16:264][205]LogAudio: Display: Audio Spatialization Plugin: None (built-in).
[2023.02.03-13.39.16:264][205]LogAudio: Display: Audio Reverb Plugin: None (built-in).
[2023.02.03-13.39.16:265][205]LogAudio: Display: Audio Occlusion Plugin: None (built-in).
[2023.02.03-13.39.16:265][205]LogAudioMixer: Display: Initializing audio mixer.
[2023.02.03-13.39.16:271][205]LogAudioMixer: Display: 0: FrontLeft
[2023.02.03-13.39.16:271][205]LogAudioMixer: Display: 1: FrontRight
[2023.02.03-13.39.16:310][205]LogAudioMixer: Display: Using Audio Device Динамики (Realtek High Definition Audio)
[2023.02.03-13.39.16:311][205]LogAudioMixer: Display: Initializing Sound Submixes...
[2023.02.03-13.39.16:311][205]LogAudioMixer: Display: Creating Master Submix 'MasterSubmixDefault'
[2023.02.03-13.39.16:311][205]LogAudioMixer: Display: Creating Master Submix 'MasterReverbSubmixDefault'
[2023.02.03-13.39.16:311][205]LogAudioMixer: Display: Creating Master Submix 'MasterEQSubmixDefault'
[2023.02.03-13.39.16:311][205]LogAudioMixer: FMixerPlatformXAudio2::StartAudioStream() called
[2023.02.03-13.39.16:311][205]LogAudioMixer: Display: Output buffers initialized: Frames=1024, Channels=2, Samples=2048
[2023.02.03-13.39.16:313][205]LogAudioMixer: Display: Starting AudioMixerPlatformInterface::RunInternal()
[2023.02.03-13.39.16:313][205]LogAudioMixer: Display: FMixerPlatformXAudio2::SubmitBuffer() called for the first time
[2023.02.03-13.39.16:314][205]LogInit: FAudioDevice initialized.
[2023.02.03-13.39.16:314][205]LogAudio: Display: Audio Device (ID: 2) registered with world 'Main'.
[2023.02.03-13.39.16:337][205]LogLoad: Game class is 'SnakeGameModeBP_C'
[2023.02.03-13.39.16:338][205]LogWorld: Bringing World /Game/UEDPIE_0_Main.Main up for play (max tick rate 0) at 2023.02.03-16.39.16
[2023.02.03-13.39.16:339][205]LogWorld: Bringing up level for play took: 0.000546
[2023.02.03-13.39.16:339][205]LogOnline: OSS: Creating online subsystem instance for: :Context_2
[2023.02.03-13.39.16:343][205]LogNativeClassHierarchy: Verbose: Native class hierarchy updated for 'MovieSceneCapture' in 0.0003 seconds. Added 20 classes and 0 folders.
[2023.02.03-13.39.16:343][205]LogActor: Warning: SnakeElementBP_C /Game/UEDPIE_0_Main.Main:PersistentLevel.SnakeElementBP_C_0 has natively added scene component(s), but none of them were set as the actor's RootComponent - picking one arbitrarily
[2023.02.03-13.39.16:344][205]LogActor: Warning: SnakeElementBP_C /Game/UEDPIE_0_Main.Main:PersistentLevel.SnakeElementBP_C_1 has natively added scene component(s), but none of them were set as the actor's RootComponent - picking one arbitrarily
[2023.02.03-13.39.16:344][205]LogActor: Warning: SnakeElementBP_C /Game/UEDPIE_0_Main.Main:PersistentLevel.SnakeElementBP_C_2 has natively added scene component(s), but none of them were set as the actor's RootComponent - picking one arbitrarily
[2023.02.03-13.39.16:344][205]LogActor: Warning: SnakeElementBP_C /Game/UEDPIE_0_Main.Main:PersistentLevel.SnakeElementBP_C_3 has natively added scene component(s), but none of them were set as the actor's RootComponent - picking one arbitrarily
[2023.02.03-13.39.16:344][205]LogActor: Warning: SnakeElementBP_C /Game/UEDPIE_0_Main.Main:PersistentLevel.SnakeElementBP_C_4 has natively added scene component(s), but none of them were set as the actor's RootComponent - picking one arbitrarily
[2023.02.03-13.39.16:344][205]PIE: Server logged in
[2023.02.03-13.39.16:346][205]PIE: Play in editor total start time 0,101 seconds.
[2023.02.03-13.39.20:743][731]LogActor: Warning: SnakeElementBP_C /Game/UEDPIE_0_Main.Main:PersistentLevel.SnakeElementBP_C_5 has natively added scene component(s), but none of them were set as the actor's RootComponent - picking one arbitrarily
[2023.02.03-13.39.39:484][969]LogSlate: Took 0.000145 seconds to synchronously load lazily loaded font '../../../Engine/Content/Slate/Fonts/Roboto-Italic.ttf' (157K)
[2023.02.03-13.39.57:978][155]LogSlate: Updating window title bar state: overlay mode, drag disabled, window buttons hidden, title bar hidden
[2023.02.03-13.39.57:978][155]LogWorld: BeginTearingDown for /Game/UEDPIE_0_Main
[2023.02.03-13.39.57:978][155]LogWorld: UWorld::CleanupWorld for Main, bSessionEnded=true, bCleanupResources=true
[2023.02.03-13.39.57:979][155]LogSlate: InvalidateAllWidgets triggered.  All widgets were invalidated
[2023.02.03-13.39.57:989][155]LogPlayLevel: Display: Shutting down PIE online subsystems
[2023.02.03-13.39.57:990][155]LogSlate: InvalidateAllWidgets triggered.  All widgets were invalidated
[2023.02.03-13.39.57:994][155]LogAudio: Display: Audio Device unregistered from world 'None'.
[2023.02.03-13.39.57:995][155]LogAudioMixer: FMixerPlatformXAudio2::StopAudioStream() called
[2023.02.03-13.39.57:996][155]LogAudioMixer: FMixerPlatformXAudio2::StopAudioStream() called
[2023.02.03-13.39.58:000][155]LogSlate: Updating window title bar state: overlay mode, drag disabled, window buttons hidden, title bar hidden
[2023.02.03-13.39.58:002][155]LogUObjectHash: Compacting FUObjectHashTables data took   0.77ms
[2023.02.03-13.39.58:054][161]LogPlayLevel: Display: Destroying online subsystem :Context_2
